<?xml version="1.0" encoding="UTF-8"?>
<!-- Created with Inkscape (http://www.inkscape.org/) -->
<svg width="755.91" height="302.36" version="1.1" viewBox="0 0 755.91 302.36" xmlns="http://www.w3.org/2000/svg">
 <defs>
  <clipPath id="clipPath205">
   <path d="M 0,226.772 H 566.929 V 0 H 0 Z"/>
  </clipPath>
 </defs>
 <g transform="matrix(1.3333 0 0 -1.3333 0 302.36)">
  <g clip-path="url(#clipPath205)">
   <g transform="translate(235.02 101.04)">
    <path d="m0 0c-0.32-0.766-0.861-1.148-1.625-1.148-0.832 0-1.405 0.382-1.724 1.148l-26.115 55.867h-20.184l35.299-75.85c2.55-5.493 6.792-8.237 12.724-8.237 5.865 0 10.075 2.75 12.626 8.251l10.331 22.167-10.14 21.814zm98.074 55.866-35.3-75.849c-2.551-5.493-6.791-8.238-12.722-8.238-5.868 0-10.077 2.75-12.627 8.252l-31.319 65.487h20.28l22.04-45.518c0.318-0.767 0.86-1.147 1.626-1.147 0.828 0 1.402 0.38 1.721 1.147l26.115 55.866zm-126.15-84.148-35.568 76.343c-2.571 5.59-6.813 8.386-12.726 8.386-5.975 0-10.249-2.796-12.818-8.386l-35.569-76.343h20.336l26.319 56.39c0.254 0.707 0.833 1.06 1.732 1.06 0.708 0 1.254-0.353 1.64-1.06l12.324-26.529h-23.775l-6.471-13.696h36.609l7.509-16.165zm212.5 32.915c0 5.182-1.814 9.587-5.44 13.216-3.631 3.627-8.035 5.441-13.216 5.441h-44.895c-0.519 0-0.958 0.178-1.312 0.535-0.358 0.355-0.534 0.791-0.534 1.311v10.3c0 0.518 0.176 0.956 0.534 1.314 0.354 0.354 0.793 0.532 1.312 0.532h55.904v18.658h-57.75c-5.184 0-9.59-1.814-13.215-5.44-3.63-3.63-5.443-8.034-5.443-13.218v-13.992c0-5.184 1.813-9.589 5.443-13.216 3.625-3.629 8.031-5.441 13.215-5.441h44.893c0.518 0 0.955-0.179 1.312-0.533 0.358-0.359 0.536-0.828 0.536-1.411v-10.204c0-1.296-0.617-1.943-1.848-1.943h-69.859v-18.657h71.707c5.181 0 9.585 1.847 13.216 5.54 3.626 3.69 5.44 8.063 5.44 13.117zm-321.22-33.107h-65.4c-5.183 0-9.588 1.813-13.215 5.442-3.629 3.628-5.442 8.032-5.442 13.215v46.741c0 5.182 1.813 9.587 5.442 13.216 3.627 3.627 8.032 5.441 13.215 5.441h65.4v-18.657h-63.553c-0.52 0-0.956-0.18-1.312-0.534-0.357-0.358-0.535-0.795-0.535-1.312v-12.147h65.4v-18.657h-65.4v-12.147c0-0.583 0.178-1.053 0.535-1.409 0.356-0.357 0.792-0.535 1.312-0.535h63.553zm452.8 4.339-121.12 76.951c-1.489 0.947-3.463 0.507-4.409-0.983-0.946-1.488-0.505-3.461 0.983-4.407l121.12-76.952c0.53-0.335 1.123-0.498 1.71-0.498 1.057 0 2.089 0.524 2.697 1.481 0.946 1.489 0.505 3.461-0.981 4.408m-68.099 93.137c1.417 0.338 2.877 0.462 4.359 0.374 3.956-0.242 7.581-2.01 10.207-4.979 2.627-2.968 3.94-6.782 3.698-10.739-0.112-1.847 1.292-3.438 3.141-3.551 0.07-4e-3 0.139-5e-3 0.209-5e-3 1.757 0 3.233 1.369 3.341 3.148 0.234 3.814-0.547 7.529-2.204 10.862 3.094 0.984 6.316 1.509 9.62 1.509 16.956 0 30.751-13.304 30.751-29.655 0-10.762-6.067-20.7-15.834-25.939-1.631-0.875-2.247-2.907-1.372-4.538 0.605-1.128 1.762-1.768 2.958-1.768 0.534 0 1.078 0.128 1.581 0.397 11.951 6.407 19.373 18.61 19.373 31.848 0 16.185-10.953 29.928-26.038 34.627 0.185 1.212 0.356 2.614 0.356 3.41 0 11.435-9.303 20.738-20.738 20.738-2.384 0-4.723-0.402-6.95-1.195-1.496-0.532-2.277-2.176-1.744-3.671s2.177-2.278 3.671-1.744c1.607 0.573 3.298 0.862 5.023 0.862 8.266 0 14.99-6.724 14.99-14.99 0-0.386-0.105-1.267-0.228-2.115-1.889 0.287-3.826 0.438-5.799 0.438-4.738 0-9.352-0.853-13.721-2.524-3.719 3.718-8.588 5.943-13.883 6.267-2.129 0.128-4.262-0.053-6.321-0.544-1.801-0.429-2.914-2.237-2.485-4.039 0.43-1.8 2.238-2.91 4.039-2.484m-61.404 22.883 36.94-24.439c0.485-0.32 1.029-0.473 1.569-0.473 0.921 0 1.827 0.448 2.376 1.276 0.866 1.31 0.507 3.075-0.804 3.943l-36.94 24.439c-1.312 0.866-3.079 0.508-3.943-0.803-0.866-1.31-0.507-3.076 0.802-3.943m72.149-66.497-99.297 65.689c-1.102 0.73-1.405 2.215-0.676 3.318 0.731 1.104 2.217 1.407 3.319 0.676l99.299-65.691c1.103-0.729 1.404-2.215 0.676-3.317-0.462-0.697-1.223-1.074-2-1.074-0.455 0-0.912 0.128-1.321 0.399m18.449-93.786c0-2.674-1.612-4.008-4.836-4.008-3.227 0-4.838 1.334-4.838 4.008v2.432h2.004v-2.548c0-0.687 0.238-1.222 0.715-1.603 0.477-0.383 1.183-0.571 2.119-0.571 0.935 0 1.64 0.188 2.116 0.571 0.477 0.381 0.716 0.902 0.716 1.559 0 0.66-0.071 1.184-0.215 1.575-0.143 0.392-0.434 0.806-0.872 1.245l-5.036 4.924c-0.594 0.589-0.998 1.168-1.217 1.729-0.221 0.565-0.33 1.276-0.33 2.135 0 1.278 0.395 2.265 1.187 2.963 0.791 0.696 1.99 1.044 3.592 1.044 3.072 0 4.609-1.335 4.609-4.007v-2.434h-2.005v2.548c0 0.687-0.222 1.221-0.671 1.603-0.448 0.382-1.122 0.572-2.018 0.572-0.898 0-1.569-0.19-2.019-0.572-0.448-0.382-0.671-0.908-0.671-1.576 0-0.667 0.066-1.192 0.2-1.573 0.134-0.382 0.428-0.783 0.888-1.202l5.123-4.923c0.552-0.61 0.935-1.199 1.144-1.761 0.21-0.562 0.315-1.273 0.315-2.13m-14.538-3.579h-8.444v18.604h8.157v-1.718h-6.153v-6.583h5.008v-1.717h-5.008v-6.868h6.44zm-16.63 3.579v1.573h2.004v-1.573c0-1.28-0.394-2.268-1.176-2.963-0.781-0.699-1.955-1.045-3.52-1.045-1.564 0-2.748 0.346-3.548 1.045-0.801 0.695-1.204 1.683-1.204 2.963v11.448c0 1.278 0.392 2.265 1.174 2.963 0.781 0.696 1.956 1.044 3.521 1.044 1.564 0 2.749-0.348 3.548-1.044 0.802-0.698 1.205-1.685 1.205-2.963v-2.719h-2.004v2.719c0 1.526-0.908 2.289-2.72 2.289-1.815 0-2.72-0.763-2.72-2.289v-11.448c0-1.528 0.905-2.29 2.72-2.29 1.812 0 2.72 0.762 2.72 2.29m-12.996-1.861v-1.718h-4.866v1.718h1.431v15.168h-1.431v1.718h4.866v-1.718h-1.431v-15.168zm-13.367-1.718h-3.005l-4.208 18.604h2.003l3.694-16.401 3.72 16.401h2.004zm-13.651 10.59v4.008c0 0.724-0.22 1.286-0.658 1.687-0.44 0.401-1.071 0.601-1.89 0.601h-2.318v-8.586h2.318c1.697 0 2.548 0.763 2.548 2.29m-4.866-10.59h-2.004v18.604h4.322c1.486 0 2.619-0.354 3.392-1.059 0.772-0.707 1.159-1.689 1.159-2.947v-4.008c0-1.946-0.84-3.187-2.52-3.721l3.523-6.869h-2.206l-3.348 6.583h-2.318zm-7.443 0h-8.442v18.604h8.157v-1.718h-6.154v-6.583h5.011v-1.717h-5.011v-6.868h6.439zm-14.798 3.579c0-2.674-1.614-4.008-4.837-4.008-3.226 0-4.837 1.334-4.837 4.008v2.432h2.003v-2.548c0-0.687 0.239-1.222 0.715-1.603 0.477-0.383 1.184-0.571 2.119-0.571s1.641 0.188 2.116 0.571c0.478 0.381 0.716 0.902 0.716 1.559 0 0.66-0.071 1.184-0.213 1.575-0.145 0.392-0.435 0.806-0.873 1.245l-5.036 4.924c-0.594 0.589-0.999 1.168-1.218 1.729-0.219 0.565-0.329 1.276-0.329 2.135 0 1.278 0.394 2.265 1.188 2.963 0.79 0.696 1.989 1.044 3.59 1.044 3.072 0 4.608-1.335 4.608-4.007v-2.434h-2.003v2.548c0 0.687-0.223 1.221-0.672 1.603-0.448 0.382-1.121 0.572-2.016 0.572-0.899 0-1.572-0.19-2.02-0.572-0.449-0.382-0.672-0.908-0.672-1.576 0-0.667 0.066-1.192 0.201-1.573 0.132-0.382 0.43-0.783 0.887-1.202l5.123-4.923c0.553-0.61 0.935-1.199 1.145-1.761s0.315-1.273 0.315-2.13m-28.451 4.15v1.717h5.21v-9.446h-0.858l-0.745 1.833c-0.402-0.689-0.926-1.238-1.574-1.647-0.649-0.411-1.357-0.615-2.118-0.615-2.767 0-4.151 1.334-4.151 4.008v11.448c0 1.278 0.39 2.265 1.174 2.963 0.781 0.696 1.956 1.044 3.519 1.044 1.566 0 2.748-0.348 3.55-1.044 0.802-0.698 1.203-1.685 1.203-2.963v-1.573h-2.005v1.573c0 1.526-0.905 2.289-2.717 2.289-1.815 0-2.72-0.763-2.72-2.289v-11.448c0-0.726 0.151-1.289 0.458-1.69 0.305-0.402 0.861-0.6 1.674-0.6 0.812 0 1.563 0.325 2.262 0.972 0.694 0.648 1.043 1.278 1.043 1.889v3.579zm-18.891-7.729h-2.003v18.604h2.003l6.212-14.311v14.311h2.005v-18.604h-2.005l-6.212 14.311zm-7.984 1.718v-1.718h-4.867v1.718h1.433v15.168h-1.433v1.718h4.867v-1.718h-1.431v-15.168zm-19.091-1.718h-2.004v18.604h2.004l6.21-14.311v14.311h2.003v-18.604h-2.003l-6.21 14.311zm-10.162 10.59v4.008c0 0.724-0.219 1.286-0.658 1.687s-1.068 0.601-1.889 0.601h-2.318v-8.586h2.318c1.699 0 2.547 0.763 2.547 2.29m-4.865-10.59h-2.004v18.604h4.322c1.489 0 2.619-0.354 3.392-1.059 0.773-0.707 1.158-1.689 1.158-2.947v-4.008c0-1.946-0.838-3.187-2.517-3.721l3.52-6.869h-2.205l-3.348 6.583h-2.318zm-12.879 16.371-2.347-10.36h4.693zm-1.49 2.233h3.006l4.209-18.604h-2.003l-0.977 4.293h-5.464l-0.973-4.293h-2.005zm-18.603-18.604h-2.807l-2.776 18.604h2.004l2.348-15.713 3.061 15.713h2.147l3.062-15.713 2.349 15.713h2.004l-2.778-18.604h-2.804l-2.92 14.855zm-17.174 0h-8.443v18.604h8.158v-1.718h-6.154v-6.583h5.008v-1.717h-5.008v-6.868h6.439zm-22.957 0h-2.004v18.604h2.004v-8.301h5.638v8.301h2.004v-18.604h-2.004v8.586h-5.638zm-10.161 3.579v1.573h2.003v-1.573c0-1.28-0.391-2.268-1.173-2.963-0.783-0.699-1.956-1.045-3.52-1.045-1.566 0-2.748 0.346-3.55 1.045-0.802 0.695-1.202 1.683-1.202 2.963v11.448c0 1.278 0.39 2.265 1.173 2.963 0.783 0.696 1.956 1.044 3.521 1.044 1.564 0 2.748-0.348 3.548-1.044 0.803-0.698 1.203-1.685 1.203-2.963v-2.719h-2.003v2.719c0 1.526-0.907 2.289-2.719 2.289-1.814 0-2.719-0.763-2.719-2.289v-11.448c0-1.528 0.905-2.29 2.719-2.29 1.812 0 2.719 0.762 2.719 2.29m-22.096-3.579h-2.004v18.604h2.004l6.211-14.311v14.311h2.003v-18.604h-2.003l-6.211 14.311zm-12.881 16.371-2.347-10.36h4.695zm-1.488 2.233h3.006l4.208-18.604h-2.004l-0.973 4.293h-5.468l-0.972-4.293h-2.004zm-14.31-18.604v18.604h2.003v-16.886h5.239v-1.718zm-10.877 16.371-2.347-10.36h4.694zm-1.488 2.233h3.005l4.208-18.604h-2.003l-0.974 4.293h-5.467l-0.973-4.293h-2.004zm-11.277-18.604h-3.005l-4.208 18.604h2.004l3.693-16.401 3.721 16.401h2.003zm-15.799 16.371-2.347-10.36h4.695zm-1.488 2.233h3.005l4.207-18.604h-2.003l-0.973 4.293h-5.467l-0.973-4.293h-2.004zm-25.302-18.604h-2.004v18.604h2.004l6.21-14.311v14.311h2.004v-18.604h-2.004l-6.21 14.311zm-12.88 16.371-2.348-10.36h4.694zm-1.489 2.233h3.005l4.208-18.604h-2.003l-0.974 4.293h-5.466l-0.974-4.293h-2.003zm-7.928-18.604h-8.443v18.604h8.157v-1.718h-6.154v-6.583h5.009v-1.717h-5.009v-6.868h6.44zm-16.174 9.732v4.866c0 0.724-0.219 1.286-0.658 1.687s-1.068 0.601-1.888 0.601h-2.319v-9.443h2.319c1.698 0 2.546 0.76 2.546 2.289m-4.865-9.732h-2.004v18.604h4.323c1.488 0 2.618-0.354 3.391-1.059 0.773-0.707 1.159-1.689 1.159-2.947v-4.866c0-1.278-0.382-2.268-1.145-2.962-0.763-0.697-1.899-1.045-3.405-1.045h-2.319zm-10.161 3.579v11.448c0 1.526-0.954 2.289-2.862 2.289-1.909 0-2.862-0.763-2.862-2.289v-11.448c0-1.528 0.953-2.29 2.862-2.29 1.908 0 2.862 0.762 2.862 2.29m2.004 11.448v-11.448c0-1.28-0.406-2.268-1.217-2.963-0.811-0.699-2.023-1.045-3.636-1.045-1.612 0-2.828 0.346-3.648 1.045-0.82 0.695-1.231 1.683-1.231 2.963v11.448c0 1.278 0.406 2.265 1.217 2.963 0.81 0.696 2.021 1.044 3.634 1.044s2.829-0.348 3.65-1.044c0.82-0.698 1.231-1.685 1.231-2.963m-17.46-4.437v4.008c0 0.724-0.22 1.286-0.658 1.687-0.439 0.401-1.068 0.601-1.888 0.601h-2.319v-8.586h2.319c1.697 0 2.546 0.763 2.546 2.29m-4.865-10.59h-2.004v18.604h4.323c1.488 0 2.618-0.354 3.391-1.059 0.773-0.707 1.159-1.689 1.159-2.947v-4.008c0-1.946-0.839-3.187-2.518-3.721l3.52-6.869h-2.204l-3.348 6.583h-2.319zm-10.59 3.579v15.025h2.004v-15.025c0-1.28-0.405-2.268-1.216-2.963-0.811-0.699-2.023-1.045-3.636-1.045-1.612 0-2.828 0.346-3.649 1.045-0.82 0.695-1.231 1.683-1.231 2.963v15.025h2.004v-15.025c0-1.528 0.953-2.29 2.862-2.29 1.907 0 2.862 0.762 2.862 2.29m-12.879-3.579h-8.444v18.604h8.156v-1.718h-6.153v-6.583h5.008v-1.717h-5.008v-6.868h6.441z" fill="#374ea9"/>
   </g>
  </g>
 </g>
</svg>
