{
  "type": "FeatureCollection",
  "features": [
    {
      "id": "AT-08-01",
      "type": "Feature",
      "properties": {
        "id": "AT-08-01",
        "end_date": "2022-10-01",
        "elevation": "low"
      },
      "geometry": {
        "type": "MultiPolygon",
        "coordinates": [
          "w_Rkx{AJ@D?D?VAF?F?D@F@B@@@@D??@@@?FB@?@@DDB@D@@?@???@ABC@A@?@?B?@?B@B@@@@B@@B@B@B?B?HADA@A@A@C@C?ACE?C?A?A@?@A@?D@D@@@BBBBDDFBD@F@F@F@H@H?J?HADABABAHGDAFADAD?@?CLe@V[d@M?EM_@X{@BOHJFJHBB@B?D?FAFEJAHAH?FML]N?LDJTNRDr@@HFHFJFHHDFBD@FDL@H@FBB@BB@DBNJPHLFDBB@@B@BBJBFDBFDHDD@B@?@@@gAz@\\`@M?A@QF_@Z??KAICEEECEGCGEGCEC@C?K@G@I?I?E?G@GBIBKFIDEDEBOHIDOBIBM@I@IBE@IDIDC@C@C?EBA?E?I@O@WBG@M@A@@e@USe@Qo@Gg@I[Am@Kc@O_@C@YV]@]k@M[OW[m@[??A@C@C?UESG[e@FOKOCSa@KKKKI@KPKHSTUHOZA^G^KRMVA`@FRL`@?`@E?A?A?A??@A@A?A?C???C?C?CBC@A@?BAD?@?B?DAB?@CBA@CBCDCBADAB?B?BA@??A@A@C@C@E@C@C@A??BABABABADADA@???B?D?D@H@F@FBFBD@BBDBHBF@JBF@F?B?B???B?DAFCHCHEJCHAEm@\nykRwq{A??AAA?A?C?EAA@C?C@E?C?C?C?A?A?A?CACAAAAAAA?AC?C?AAC?CAAAA?A???A?A@?@A??@?@?@A?A@A?A@C??@A?A@?@A@?@A@A?A@A???A?A?C?A???CA??????????????????????????A???????????????????????????????????AA????????????????????????A?????????????????????????????????????C???????????????????????????????????????????????????A???????????A???????????????????????A???????????????????????E@??????????????????????????????????????????????A?A@A?A?AAEA??????????C???????A???????C???????????A???????A@??????????A@??????A????????@A@??????A@???????????@??????????@@??????@@????????@@@?@@B?D?D@D?@@B?@@@???A@A???E?G?C@C?C?A????@A????@???@??@@@?@@D?D@B?H?F?D@F?F?H?D?DAD?HABAB???@?B?D?D?@A@??A?AA??AAAC?EAE?C?A??AC?AA?????AFA@?B?D?JAFAF?B?B?B?B?B?D?DAD?FAD?B?B?BA@A@??A????AAC?EAGAEAAA\nsiRwi{AA@A?A@A@??A@?@?@???@?@@@?@?@?@??AB@B?@@@@@?@@@?B@@B@B@D?D?D?D?D???@?@?@?@??A@?@A?A@?@C???C???E@A@CBC??BE??@C???A???AA??AA?A?CAA?UCA?E?A???C?G?G?C?\ngaR{j{A@A@A?A?AAAAA?AAA???A?AA??AAAAA??@A@A??@?@A@A@C?ACAAAC?GAA?AC?A?A?A?A@C???A???A@??A@A??@A?????A@?AA?AA???AA???A?A?A???A??C???A@C?A?EAA?A?A?A?A??AA?A@A?A@???@????A?A@A???CACA?AA??AA?????AA???AAA?AAAA?AA?ACE??CC?ACCA???CAA?IAKE??EA??GA??A?CAEAC?A?AAC?C?C@C?C?C?C@C?A?A@?@A@?@???@??@@??B@D?B?B?B?@?@?@?@?@?B@D@@??@H@FBPH@????B???@?@??@??@@?@???@@??BA@?D?@AB???@???@@?@?@??A@A@A@?@???B??A@?@??A@?@???@?@?@???@?@@?BB@?@@B?@?B?B?@@@?@@?@?@??A@???@?B?@@@?@?????@????A???A?A??A?A?AA???A?E?AAG?A?????A@AB?@?B@?@@B@@?@B@B?@C@IBC@E?C?C?C?A???AAAC?A??@C???C???A?AAA???AA??ACA??EA??KCA?EAA?A?A?A@A???C@A@A?AAGAA??A?A?AA??AA?AA??A?CA??ICA?A?C?A?A?I@C@EAEA??C?AAE?A?E???OBA?A???AAAAAA??AAAA???AA??A?A?A?A?A@?BABA@A?A?AAA???AC?A?GAE?C?E?E?C?E?OEE?C?A?A?C?E?C?A@G@A@A??@??A??@@??@@???@@?@@@@?@@@?B@@?@?B@@?H@D?D@B@D@??@@???@A@C@A??@A???A@?@?????@?@@@@@BB??BB??@?B@@?D@@?J@J?@@B?B?B@??@??????@????A@I@??C@A?C@A@??A@???@?@???@??B@?@DB??D@@?B@??B?@?@?@?@?@A@??A@?@C@?BEBA@AFA??BA??B?@A@?@???@????@@??@@@@?@@B?@@??@???????A@????A??@A?A@A@CBA?ABE@C@A??@?@?????@@?@?J@B?@?B?B@B?D@B?@?????@?B?B?@?B@??@??@@?B@@?D?@@??@@?@?@?@???@?@??A@A?A???E@??C?A?A@A?A@??A@???@A@A@?@?B@@????@@??@?@???@?@?B???@?@?B?????@??@@??@?BA?A@G@A@ABA@ABC@?@?BB@@@B?B?DA@?@?B@B?@AB?B?@??@B@B@B?B?@?D@@@@?B?B?HA@?D?B@@@B@D?J?D@FBF@D@H?D?D???@?BA@?NEB?D?@?BA??@?@??A@??A?A???C???C??AA??A?CA??GCA?C?A?CAA?A?A@??A?A@??A?ABA?A???A?CACACCAAA?AA??A?A?AAA?A?A?A@C?C@A?AAA?CACCECAAAAA?GC??CAA?CA??A?C??@A?A?A?CBA???AAGCCCAA?C?A????BA??@A??@A?A@??A???A?????A@?@AB?D?@?@?B??@@?@?@?@?@A@??A@A??@A@?B?D@@?@?B?@A@?@?@?@?@???BD?@DBB@B?BAH?HCDABCBG@C?C@C?AAA???AA?C?E?C?A???A??A???A?A?A?C?A@A??"
        ]
      }
    },
    {
      "id": "AT-08-01",
      "type": "Feature",
      "properties": {
        "id": "AT-08-01",
        "end_date": "2022-10-01",
        "elevation": "high"
      },
      "geometry": {
        "type": "MultiPolygon",
        "coordinates": [
          "gaR{j{A??A@?@?B?@?@?@???@@???@?B?D?B?@??@??@@?@AB?BABCFCBE@IBI?C@C?CAEC?ACE??A?A?A?A?A?A@C?A?A?EAC?A?A@??A@?@A?A@A?A?A?A??AC?A?A?E?C?A@A??@?????@???@A??@A@??A@??C@?????@?B@@BBFB@@??@?BC@?@?@??AB?@???B@@?B@??FB@?@@@@DBBBB@@?@@@?BAB?@A@?@?@?@@@?@???@@@?@@BBB@B@@???@?@?@C@???@A@???@A@?@?B@@?B?@?FB??B@@???@@???B???B???@?@A??@A?A???C@A?E?C?ODA?C@A???E?E?I?EAGAGCEAK?E?CAAACAE?A?I@C?C?A?AAEAA?C?C?CACA?AA?C?C?A@C?CAA?A?E@C?C?AACA?C?ABA@C@A@C@AFA@A@??C?AA??AA?????C?A?A???C?A?A???A?A???AA????AA?C?A@A@A?A??@A??@A@?@A@?B???DA??@?@?@A???A?A???A?A?AAA??AAE?A?CAA??AA???CAA?C?C?A?????A?C?EAC?CAC?A?C?KAA?A??A?????A?A@?BADA@C@?BC@A@A@??A@?????@A??????A???AAC?AAA?AA?AA??A??A???A?A?A@C???C@??G@A@C@CDA?ABA??@A?A@A?A?A?A?C???CAA?EA??EC?ACA???A???A?A??@A??@ABA@?BA??HA@A?????A????A???CAC?C?AAK?KAA?EAA?CAA???CC??CCAAAA?A?A?????A@A??@??A@?BA@A?A??AA??EACAEAE?IAA?CAA?A?CAA?AAA?AA?AAA??A??AA??A@????A@?@AFA@AB?D?B?@?@?B?D?NDD?B?D?D?B?D?F@@?B??@??@@?@?@A@C@C@A??@?@?@?@?@@??@??@@@@??@@@@@@??@?@?NC??D?@?D?@@B???D@D@BAHA@?@?B?@?@?HB??B@@???@@@??@@??@?@?@@?F@@@@?@ABA??@?@A@?@?@?D@@?JB??D@??B@?@@??@??@@?@?@???B??AB???@@B@@??@?B?B?B?D?BAHCBA?AACACA?CAAAA??C?A@C@A????@?F?@@D?@???@??@?@?@@?@???@??????A?????AAA?A?C?A??@A???A?AAAA?AAC?C?A?C?AAA?CCA??A?A???A?A?A???A@A???A@A???C???A@A@A@A???A?AAA??A???C?A@E?A?C@??AA??A?A??AA????A?A???C??A?QIGCIA?AA?EACAA?A?A?A?A?C?C?C?E?CA??AA???A???A@A?A@A@?B?BAB?B?B?BAB?B?@@@?B?D@B@@???F@??D@??JDH@@?B@??@?BB?@BB??BD?@@@@?@@?@@@?@??@@????@??@@??@B@B@??@?@A@??????A??@A@?@A@??@@?@?@?@?@?D@@?B?@A??B????@???@?@?@??@@??@??@@@A??@????A@??A@?@A??@???@??AB?@?@?@?@@B@?F@B?@@B@?@ABA@A@A???A@A@??@@@@?@@??@?@??@@?@@@@@?@?@A@A@",
          "siRwi{AB?F?F?B???@?D?@?TB@?B@@?@??@@??@???@??AB??CD??CBABA@?D???B??ABA??@A@A??@A?A?A?A???E?E?E?E?E?CACAAA?CAA?AAAAA?AAC@C???A?A?AAA?A?A???A?A@A??@A@A@?@A",
          "ykRwq{A@@D@F@D@B?@@?????@A?A@C@C?C?E?G@E?E@E?C?C?C?C?C?G?G@K@E?C?A?G@?@????@@B??@@?B?D?D@B?@@?@@??@?@A?A@E?E?C?A???C?C@I@E?E@E?I?G?G?EAG?I?C?EAE?AAA?AA???A???A??@??A??@?B?B?BAF?D???@?@A??A?AAC?AAE?EAE?C?AAA?AA????????AA??????AA???????????A??????????@A??????@A?A??????@???????@A??????????@A??????@???????????B???????@???????B???????????D@@@@?@?@A@???????????????????????????????????????????????DA??????????????????????@???????????????????????@???????????@???????????????????????????????????????????????????B?????????????????????????????????????@?????????????????????????@@??????????????????????????????????@???????????????????????????B@??@?B?@?@???@?@A@?@A?A@A?A@A@??AB?@A@?@A@??A?A?A@??A@A@???@?@?@@B@B?@@B?B??@@@@@@@B@B@@?@?@?B?B?B?D?BAB?@AD@B?@?@?@@??"
        ]
      }
    },
    {
      "id": "AT-08-01",
      "type": "Feature",
      "properties": {
        "id": "AT-08-01",
        "start_date": "2022-10-01",
        "elevation": "low"
      },
      "geometry": {
        "type": "MultiPolygon",
        "coordinates": [
          "yqRsr{AJKHOZA^G^KRMVA`@FRL`@?`@E?@?B?@?B?@C@?@AB?@?@@@B@B@B@BB@@?@?D?B?B@D@DB@BBB?@@D?B?F?D?F@B@@@BB@@?D?D?BA@EBDFJ?NFCJNJP?VFVCLABBJFB@J@D@@?LHFDFDN?RCJ?NE@?F@NBFIHEVC@EVWLGTNRDr@@HFHFJFHHDFBD@FDL@H@FBB@BB@DBNJPHLFDBB@@B@BBJBFDBFDHDD@B@?@@@gAz@\\`@M?A@QF_@Z??KAICEEECEGCGEGCEC@C?K@G@I?I?E?G@GBIBKFIDEDEBOHIDOBIBM@I@IBE@IDIDC@C@C?EBA?E?I@O@WBG@M@A@@e@USe@Qo@Gg@I[Am@Kc@O_@C@YV]@]k@M[OW[m@[??A@C@C?UESG[e@FOKOCSa@KKKKI@KPKHSHI\ngoRwq{A?@A@?@A@A?C@C?C?A???CACAA?C?E?E@A?A@A?A?AAEAC?A?C?A?A@C@?@A@A@?@@@@@@@@?D@D?D@F@D@@???A@A???E?K@G?A@A????@A?@@??B@@@D?D@L?L@F?F?N?JAHABAB?J?D?@A@??A?AA??AAAC?EAE?E??AC?AA????FC@?H?JAFAF?B?B?B?B?B?PAFAH?B?DC@??A????AAIAA?ICCAAAA?A?IAIBI?A?E???A?C@AAA?AAAAAAACA?AAA?C?AAC?CAAAA?A???C@?@A??B?@A?A@A?A@C?A@A@\nupReo{A?@?@?@@@@?B@@@@@?@?@BB@@D@@@B?@?BA@?@A??@A?C?A??@AB?B?HAF?BA@??A@AAA?AA?A?CAE@G?I???C?CAA?A?AAG?K?C?C?A@??\nggRwn{A@?B@D?B?B?F?D@B?JDD@B@FBHBBB???B?@@B??@@B@@?@?@?DABA@A@?@?@@?@@@@D?BADABA@?@?B???@@@B?B@B?@A@A@?@A@?B?B@@@@@?@?BADADA@A?A@C???C?A?A?ECG?CAA@A??B?@?B?@@?@B@BB@@@?@?@A@C@G?G@E?C?CAA?AAAA?A?A@C?????AAA?AACECIE??CCEAGCCAA???A@A?C@A@A?C?CACAAACAAC???A?ABA@A?A?AAAA??AC?EAEACAA?C?A?C?A@???@?@?@@D?@A@?@A@A?A?A?AAAC?CA?CCCAC?C?C?C?A@???@?D?@A?A@C?CACAAAAC?A?C?A?C???C??AAAAE?IAC?I?C?E?CAGAEAIAG?E@A?E@C@A@??A@???@??@@@@@@@@H@N@F@HBD@??@@?@A@C@A@A?ABA@?@?@?@?@??@?@@@?B@HBB@??@@???B?@@???@@@?@?BABAB?B?D?@?@@???@?@??A?C@C@C@??A@A@A@??@@?@@@B@@@B?B@B?@?D@B?BA@ABC@ADA??DCJCDA@?@A@???@@??@B@?@B?@?@????A@C?C@CBC@C@A@C@?@???@??@@@@B?F@L?H@F?F?D@@?B?@@B@B@B@@@@??@???@?@?@?@??A?C@C?C@A?CBC@A@?@A@?@???@???@@@@???@?D?D?@?B???@??@@??@?@A@??A@E??@A????@??A@?@A@A@??A?A@A@?@???@?@@@@?@@B?B?B?DA??B?@?BABA@AB?@???@@@@@?@@@?@ADABA?@@?@@???@?B?@??@@@?@?@?DCB?@A@?B?@??@@@?@?@???@@??@??@?@?B?@?BA@@@?B?@@??@@@?@??A@?BA@?@?D@FD@?@@??B@D?@AHA@?@AB?BCB?@?@?????B@@?@ABA??BA@ADABABAD?@A?A?A?AAAA?A?A?C?A@A?A@C?A?A?AACAEAE?EAA?A?A@C?A@ABA?A???A?CACACCCAAAA?CAA?A?C@C?C@A?AAA?CACCCAAAAACCCACCC?AAA?G?A?A@A?C@A@A?A?AACAA?CC?AAA?A?A@?@A@?@A@?@A?A@C@A@A??@?DA@?@@B@@?B?@?@?@?@A@??C???A?A@A@CBADCDAD?HADA@@@?@@?@?B?B?@A@CBA@??A@?@???@@?@@@@F?D?@?BA@ABADCBABCDE@A?A?A?CAACAA?C?CAA?CA?AAA?IAAAEAC?AACAC?E?I?I?K?A?C@A?A@A?A???A??AAAA??AA??A?A?A@C@E@C@E?C?A?A?AAAAACAA??AACCGGAAAA??AA?CAA??CCIEACA?A?A?A?A?A?CAAA??CACAEAA?EA??G?E?CAA?AAC?C@G?C?C@C?A?A@AB?B???@\noiRwi{AC?A@C@A@A@?D@D?BAB@B?@BB@F@@B@B@D?D?D?D?B?B?@?@?@ABCBC?C?E@A@CBCBE@C???A?AA??AA?A?CAA?UCG?A?S?"
        ]
      }
    },
    {
      "id": "AT-08-01",
      "type": "Feature",
      "properties": {
        "id": "AT-08-01",
        "start_date": "2022-10-01",
        "elevation": "high"
      },
      "geometry": {
        "type": "MultiPolygon",
        "coordinates": [
          "goRwq{A@A@AB?@A@?@A@??A?C@??ABA??@?@?@@B@B?@@B?@?@@@?@B@@@@@@@?@@BA@???D?@?H?HCH@@?@?@@B@HB@?H@@@?????@A?EBC?I?G@Q@C?C?C?C?C?G?G@K@I?A?GB????@@B??@D?D?D@B?@@?@@??@?@A?A@E?K?C?C@I@K@O?G?G?MAM?EAE?AACA??AA@??A??@?@AF?JAD???@?@A??A?EAGAEAE?EAA?AAAAAA?A@A@A?ABA@A@?B?@?B?D@@@@?@?@A@?DAD?B?@?B@B@??@?B?B?BA@?@A?A@A?A",
          "upReo{A??@AB?B?J?F?@@@?@?B@B???H?F?DAB@@?@??@@@A@?@A?C@G?I@C?C?A@???@?BA@??A@A?C@A?C?AAEAAACC?A?AAAAACAA?AA?A?A?A",
          "ggRwn{A?A???C@C@A@?B?BAB?F?BAB?@@@?B@D?F???D@@?D@B@B@??@@B@@?@?@?@?@?@?@BHDBB??@@?B@@??@@@@FFBB@@??@@@B@@@@@?@?B?D?BADABA@A@?@???@@??@@@@???@???@A@?@A@?B?@?J?H?H?D@B@B?@@B@D@@?H@@?@B@@?B@B?@?B@@@?B?@?@A@EDCBC@EBC@A@C@A?E?G?AAAAA??A???A@A??@ABC@A?A?C?C?AAAA?AAE@I@E?E@EBC@ABA@?@?@???BA?A@A?A?A?C?A?CAAAA?E@A???A@A@AB?@A@A?A@A?A@A??@?@@@?@BB@?B@@@@?@?@ABA@?@A@?F?@?@@B?BBB@BB@@@@B@BBB@@?@@@?BAB?BA@?@?B@@?@@B@BBB@B@@???@?@?@C@AB?@A@?@?D@D?D@B@@@@?@?B?@A@?@AB?@?@?@?@@?@?@?@A@E?C@C@E@A@C@??C@A@A?CA????A?A?C?CBC?A@A?I@A@E?CA??AAA?GEEAA?A?C@A??@A?A?AA??AAC?A?AAC@A?C?A?A????AA??A???A?AAA?AA?C?A?A@C?EBA?A?A?AA???A?C?A??AAA??AC@E@A@A?AAA?AAAA??A?C?A@C@C@A?C???E@C?C?C?AAA?AA?A?A???A@A@A@???@A@A?A@A???A??@??AD?@A??@A?A?AA??AA???C?A?E?E?A???A?AA?A???A???A@A?A@ABABC@?BAB?BA@????A?A?A?A???AA?AACACACAAAC?A?EAG?G?IAM?GAC?AAAA???A???ABA@ABABABCBAB?@A?????A?AACA?AC??AA??A?A@A?E@KBEB??E@A@CBA@C@C?EAA?C?CAC?AACAAA?AAA??@A@A@A??BABABA@????A?A??AAA?E?C?C?C@C@A?A?AA??A??A?C??AA??CAICCAA?AAA????A?A?A?A@A@C@?@ABA@A?AAA??EAICGAOAIAAAAAAAAA???A??@A??@ABADA@?DAF?H@D@F@B@D?B?H?B?H@D?@@@@???B???B?@?B?@@B@@B@B@B?@A@??A?E?A??@AB?B?B?B?B@BB@??B@B@@@?@?@?@A?A@A?AAE?A?A?A??@AB?@?B?@?B@D@D@B??@@?@@?@?@A@C@?@?@??@BB@@@B@B@B?@?@ABA@?@A??@?B@FBD@BB??HDDB@B?@@@?@????AB?@?@@@@@@?B@B?D?FAF?BA@A?A?AAACAACACA??A?C?A?C@?@AB@F?DB@?@?B???B?@A@?@A@E@E?C?AAAAACAC?A?A@A?A@A@C?CAC?AA?A???C?A@A@C@E?CAEAA?AAAA?A?A@C@E@A?A?A?CAAA??AC?A?C??CCICGCCAEAKEC?EAG?C?C?E?CAA?",
          "oiRwi{AR?@?F?TB@?B@@?@??@@??@?@??ABCDCBABA@?D?BCBCBA@A?A?C?C?E?E?E?E?CACAAAAGCC?AAC@C?CAE?E@A@ABA@AB?"
        ]
      }
    },
    {
      "id": "AT-08-02",
      "type": "Feature",
      "properties": {
        "id": "AT-08-02",
        "end_date": "2022-10-01",
        "elevation": "low"
      },
      "geometry": {
        "type": "MultiPolygon",
        "coordinates": [
          "ocRw}{APBZCh@`@?JNB@\\H@JN@@CJ@F@B??ABABA?CBA?MFA@A@CDABA@@@@@B@??JBF@Dl@I@KBIDIBGBE@C???C?C?G?GAKCGAICECCCEAGCGCGAIAEAE?C???A?E@E@C@C@C@C@??A@ABABADABABA@?@A?C@C?C?E@C@EBCBABC@ABC?E@C?A?E?C@A?A@CB?B?B?B???B?@A@A@???@?@?@a@Da@?SMa@GW@SL_@J_@F[@INUTIRQJAJJHJJ`@JBRJNGNZd@RFTDE@MBODODMDIBIDK@G@C?A?CBCD??EFCB?B?B?@A@CBGBGBEBCDADCFCBCBGBK@G@G@C@K?]Q[AUCe@BS?UFGKD?@?@?@?B???B?@?FAHAB?H@??H?@?HA????@?FAD?@?D@@?@@@??@??@?@@B?@?F@??H?H???F?@?B?@?B?@?@A@?@A@??A??@A???A??@A??@?@?B@@?@@@?@???@?B?@A@??A??@A?A@A???A?A?A??AA?ACA?AGEA??A@??ADALEJCTG??BA@A??BA?A?????A???A?A??AAAAA???CAA?EAA?E?A?C@A?A?C@A?A?A?A@A?A??AAA?C?C@C@A?ADE??@A??@AB?DAB?BAL???H???D??AD?@?@A@?@A?A@??A@A?A?A?A@C?A?A@???B?D???D???D???B?@???@?@A@A?C@A?CAE?E?EAC?CAA?A???A?A?AAAAACA?AAAA?A?A?A??@?@?@?@A@?@A?A???A?CC?A?A?A?A@A?A?AA???C?A?A??@AB?@?B?B?BAB??A@?BA@?@?@?@?BA@CBEDE@??A?C@??A@A@??A@??A@?@A?????A?A?AAAA?A??????BA?A@A???A???A?AAA??AACCAACE??AAAAA?AAC?AAG???G???G?A???AA???A@ABA?A@A??@A?A???A?A??AA??CC??CA??CA??AAPi@CK^QKKg@EQWTWB_@DCb@FHOTELe@REr@LVAT]MIx@g@CC@SEMBGPDBH^?b@NNCNUr@IHFCFFT^INOf@ERKKQHUMOLQh@O",
          "mxRso{A@??@B?@?D?@???B?@@@??????@????A@A?A?A?E@E?C@A@C@AB?@?@@@B@B@D@B@??@@?@AB?@?@?@?@@??@@?@@B?B?F?D?B?@?NA??JC@???@???@@@@???@@@?@@BD@B@B@??@@?@??A@E@??A?A@A?A@A?G???YASA??I?A?E???E???A?A@A???A?A?A?CAAAA?C?A?A@?@?@@?@BD@@@@B@@??@??@@??@B?@@@?@?@?FAB?B@F@@?F?@?P?J?B?B@@??@@??@A@?@C?A@A?C@A?E?C@A@?????@???@@@@@@?@B?@@@???@??A?A???CACACAAACCECC?A?A@???@??BB@B@B@D@BD@DBD@B?B?@@???@??A????@A???A@A?A@?@A@??A@A?A?C?A?ECACA????A?AAA??AAAAA?CA??A?A?A?A?E?A???AA????@A@C@??A?A?A???A?A??A?AA?A??CA??C?AAE?A?A?A?A?C??@A?A@A??@A@?@?@?@@D@BAB?BA@??E@?@C@A??@A@?@????A?A???A?A??A???A?C???AAC??AA??AAAAA?CAAA?A@A@CDG??BE?A?A??AA?A??AAAAA??AC??AC?A?A?A???C???A?A@??A?A@A??@????A@C?A???A?C?A?A?A?A@A?C@??ABA?A?CAC??AAAAC?A?A?A@AHC??DC?A@A@??C@??A?A?A???CA???AA?AA????A??@A?A@??AA?A???C?A?AA?????A?A?A?A??AA?ACA??CA??A?CA??A?A?A?C@A?C??@KO?EOIW]HIGEPMZPXEHKXE?FXB?\\DBn@BLE"
        ]
      }
    },
    {
      "id": "AT-08-02",
      "type": "Feature",
      "properties": {
        "id": "AT-08-02",
        "end_date": "2022-10-01",
        "elevation": "high"
      },
      "geometry": {
        "type": "MultiPolygon",
        "coordinates": [
          "wuRyo{A@@??B@??B@??BB??@@???@?@???@A@??A@?@C@A@?@??@@??@?F???F???F?@@B?@@@?@@@@??BD@@BB@@??@@?@?@???@??A@?@C@???????@@@@@@?@?????@??A@A??@A??@A@A??BA@???DADEBC@A?C?A?A?A@A?C@A??@C?C?C?C?A@C?A@?@?B???@??@?@A@?@?@?@?@BB@???@?@??A@A?A?A?A?A@?@?@?@?@@?@B@@@@@?@?@?@???@@@?B@B?D?D@D?BA@?BA@A@A???A?C???E???E???E?C???A??@?@AB?@?@?@A@?@A??@A@A?A@A?E??@E???I???M?C@C?E@C?A@??A@??ED?@A@AB?B?B@@?@@?@?@A@?@?@?BA@?@?BA@?D?@?D@@?B@??@?@@@@???@?@???@?????@C@??A@C@??UFKBMDE@?@A??@@?FD?@B@?@@@???@?@?@??A@?@A@???@A?A@C?A???A?A?AAA?CAA?A???A@???@??A@???@A?A@A?A@A?C?A?C?A?G???I?I???GAA?C?AAA????AA?AAA?EAA?E?G@A?????I@A?I???IAC?I@G@A?C???C?A?A?A?B?@QMa@SBe@SEMI@JQVMQMFGMK?AB?@?BA@?@?@???B@@???B@??B@?@@@???@?@?@?@????@@@?B???@?@??@A??@A@???@??@??@@@??@??B???@?@?@A??BA?A@?@EB??IBA@?@?@?@@B@@?@B?B@@?@?@C??BA@?@A@?@?@?B?@???@?B?@A?????A@?@A@???@A@???B???@?@?@?B??@B??@@?@@@@???@@@???@?@CD??EFABA@?@@@B@@?@@@@??@@??@B?@???B?@???@@?@???@?@??????A@A?A@?BA?ADA??@A?C@CACAE?A?A?A@A?A@?@A@??AB?@?@?@?@?D?@@B???B@???@@@@????@?@???@?@?@A?ABA@????@@??@?D?@?@?@?@???B@@?@@@@??@@?@?@??@?@BDB@?B?@?@?@A??@A?A@A@?@A??@??A??@????A??AAC?C?EAECEAACAEACACCC???A??@A@?B?DBBB@@B@B@B@??@?@????A??AA?AACA?AAAA?A???A????@ABAD?@?BA@?@AB??A@A?AA??AA?CAC?K?Q?A?G?A?GACAC?G@A?A?A?AAC??AA??AA???AAACAAEAACA??A?A@A@?B?@?@@B@@?@?@???@?@A@???D???D?@?H???R@X@??F?@?@A@?@A@???DA@A???AAA??CACAEAAC?AAA?A??AAAA??A???A?KB??O@A?C?E?G?C?C?AAA??AA??A?A?A?A@C?AAA??CAEACACAAA?A?A@CBA@ABAD?DA@?@?@?@A?????A????A?AAC???A?E?A?C??AA?\\If@f@BGJ["
        ]
      }
    },
    {
      "id": "AT-08-02",
      "type": "Feature",
      "properties": {
        "id": "AT-08-02",
        "start_date": "2022-10-01",
        "elevation": "low"
      },
      "geometry": {
        "type": "MultiPolygon",
        "coordinates": [
          "itRar{Ap@U\\BIHIRQJAJJHJJ`@JBRJNGNZd@RFTDE@MBODODMDIBIDK@G@C?A?CBCD??EFCB?B?@?BA@CBGBGBEBCDABCHCBCBGBK@G@G@C@K?]Q[AUCe@BS?UFCGB?FADAFANA\\?HAF?D@@?@@@@@?@@B?@?B?H@F?D?F?D?@???B?BA@?B??A?A???A@A??@A??@?@?FB@?B?@?@?@?@A@A@E??@A?AAAACCAAAAAA?AA?A???ABABCHAJEFADAFABABCBA@A?C?A???AAAA?CAG???EAG?G@G?E?A?AA???A?C?A@C@A??BADAFAFA@?DA@AB?B?FAJ?B?@ABA@?@C@E?A?A@A@?@?@?H@@@D?BAB?@A@??A?E?IAE?GAEAACCCAC?E?C?C?AAACAAAAAAA?C@??A??@?@??AD?DAJCDCBCBC@E?A?A?A??AA?CCACEEEECEAAEACAE?CAAA?C?ABABCBA@A@A?C?ACAECECA??A@A@C@A@C?A?AAA??A?C?C@C?A???FQCK^Q",
          "w~R}o{AFGGEPMZPXEHKXE?FXB?\\DBn@BDAF@?@@@?@CBAD?B@B@?@@B@B@@@@B@B@BB@D@D?HAF?H?JC@?@???@@@@@B?@@BHB@@@@?@?@??A@A@A@A?A?A?A?E?C?YASAK?E?E?A?C@A?A?A?CAAAA?C?A?A@?@?@@?@BD@@@DD?@@??@D?B@@?FAB?B@H@F?R?J?B?B@@??@@??@A@?@C?A@A?C@G?C@A@???@?@@@@@@????@?@?@??A?A@A?AAA?EAAA??C??@A??@?@?@?@?BB@@BDBB@@@?@@@A@?BA@C?A@A?AA??CAACA?CECCEAC?C?A???A?AA???A??@C?C?A?CAAAAEAEAE?C?C??@A?A@A??@A@?@?@?@@D@BAB?BA@??E@?@C@A??@A@?@??C???A?A??A???A?CAEAAAAAAEAAA?A@A@CDGBE?A?A??ACAACCC?CAA?C?C?A?A@C@A??@A@C?A?A?C?C?A?A@A?C@ABA?A?CAC?ACAC?A?A?A@AHC@ABCDC@C?A?A?AAA?A?A?E?AAA?AAAA?C?A?AA?A?A?C?C?CA?ACC?CAA?A@C?A???A?AA?AAA?AAC?AA?CACAECOOKGEEA?"
        ]
      }
    },
    {
      "id": "AT-08-02",
      "type": "Feature",
      "properties": {
        "id": "AT-08-02",
        "start_date": "2022-10-01",
        "elevation": "high"
      },
      "geometry": {
        "type": "MultiPolygon",
        "coordinates": [
          "muRqp{A??@?B?BAB?@???@@?@?@ABA@ABA@?@@?DBDBB@?@?BA@A@C@CBC@?@?B@@B@D?B@D@@@BDDDDD@BBB@??@@?@?@?D?BABCBCBE@K?E@E???A?A@???BA@?@@@@@@@B@@B?B?D?B?B@BB@@@D?F@D?H?D?@A?A@C?C@E?AAIAA?A?A?A@?@?@ADABA?C@A@C?K?G@C?C?A@E@A?G@G@E@C@??A@AB?@?B?@??@@@?D?F?FAF?D@??F?B@@?@@?@???@?BA@C@CBC@G@E@G@KDI@CBC@?@???@@@@?@@@@B@@B@@?@A@??ADA@A@A?A?A?C?A?GCA?A???A@??A@?@???@?@C?A?C@C???A?E?G?E?G?IAC?A?C?AAA?AAAAA?EAG?I@]?O@G@E@G@C?CCH?@QMa@SBe@SEMI@JQVMQMFG[[@EOIW]@A@?DDJFNNDBB@B@@??@@B?@@@?@@@@???@?B?@A@?B@B?@B@??B?B?B?@?@@@@?B?@?@@?@@@?@?D?@?@@@?@?@?@ABEBCBA@IBA@?@?@?@@B@BB?B@@?@?@CBA@?@A@?B?B?@?@?B?@A?A@?BA@A@?B?B?@?B@B?BB@@@B???@?@CDEFABA@?@@@D@@@@@@@@D?B?@???@@?@???B????A@A?A@?BA?ADA??@A?C@CACAE?A?A?A@A?A@?@A@??AB?B?D?D@D@@@@@?B?@?BAB???@??@@@???@?B?B?D@BBBD@?@BB@??@@@?@AB?@A?C@AAA?AAACAECACCA?C?A?A?A?A@??AB???@@D@@?@@@?@A@????A?A?A??A?AAAA?A?A??@ABAF?BA@?@AB??A@A?AA??AA?CAC?K?S?G?IACAC?G@A?CAE??AA??AEEAAEAACA??A?A@A@?B?@?@@B@@?@?@?BA@?D?D?J?R@X@B?D?@?@?@?@?@A@A@A???A?AAAAAICAC?AACAAAA??A?A?KBI?G?I@E?EACAACACACAACACAAAA?AC?C@EBC?AAA?AGAd@Mf@f@BGTs@"
        ]
      }
    },
    {
      "id": "AT-08-03",
      "type": "Feature",
      "properties": {
        "id": "AT-08-03",
        "end_date": "2021-10-01",
        "elevation": "high"
      },
      "geometry": {
        "type": "MultiPolygon",
        "coordinates": [
          "k}R_h{A@?@?@AD?@?H?BAD?D?B?@?@?B@B@B@@@BFBD@?BDDBBB@@B@?@B@@B?@@@@B?@?B?@?B?@?@@?@@@?BB@@BB@D@@?@??@@?B?@A@ABCDOLEBC@A?E@C@A@A@?@?@@?BB@??@?BAF?B@DBH?@?DADCBCBC@G@C?A@GBE@C@I?E@A????EWCMIGGXIJGIQNILa@]U?ACA?AB?@A@C@I@C@ABC@AB?@A@??AAAA?CAA?C?C????ACCDE?A??RGCCUSE?",
          "_pRaa{AA@A@A@C@A@A?A?C?A?A?AAIACAAAA?AA?A?A??AAC?A?E?EAA@C??@C?A?CAC?A?A@AAA?A?CCC?AAA??AA???C?A@C?C@A???AA??CE?AA?A?A?A?C@E?E?CAA????A??@ADC??@A@???@A@?@A??BCJEHEBABCDILW@ABA@A@?B?DBFBLFHBRFB@J@D@DBBD@D@BAB?BA?A@?B@@?@D@B@@??@@@??ABA@A@A?C?G?C@A@AB",
          "kvRqa{A@?@@?@@B?@A@A@A?C@A?AAAACAEACAA?A?A?C?E?EAIAEAC?AAAAC?C?E?A@A@?@A???A?A?AAAC??EACACA?A?A????AA??@E@C?O?A@A@C@ABI@CDCJEBA@CDIBA@AB?@?D?B?D@RFBBBBBBDF@@B?B?B?@C?A?CACACEE?A?A?A@A@?D?F?`@DH@JBD@@@@B?@ABABIJEDEDGDA?A@C?C?CAIGEAA?A?A?A@??AB@@?@BBFDDB@@?@A@A@C@E@K@C?A@A@?B",
          "ycRod{A?B?BA@A@E?G@?@A?AB?@@BA@?@CBE@E?K?GAEAE?C?E@C?C@A???A@A@A?C@E?A@?????@?@???@??@?@@@?D?B?@?@@@@??A@A?A?A@A?C?E?C?A?C?A?C???C?C?E?G?I?K?A?C?AACAAAACA?CAC?EAC?E@G@E@C?G@C@C@??I@??I@??U?G@C?A@A???@B@@??@B?????@?@???@????A@??A?C@?@C?A???C?????CA????CA??AAA?EGCAECGC??ECA??A??AA?A?CAAAACAAACAIA??UI??IC??IC??AA??AA??AC??ACAACAMG??GC????AC????AE????CAA?G???CA??A?A?AA??CA??AA??AACAAAIA??CA????AA??AA?????EAA??CAEAGAA?C?A???A@?@?BBD???B??A@???@A??@A???A?????C???E?A?C???CAA???AA??AA?AAEAA?AA?C?C?A@A?A@??@@@B?@???@???@????A@????A@??A?A???E???GA??E???EA????AAA??????ACACAEAGCGCGAEAAAA??A?A@A@?DABAF@H?@?B?@A?AAAA?CAA?C?C?E@G?GAG?GCE?AA?CCC?ACCCAAAAAA?AAA?CCCAEECAAA?AAAAA?A?A???A@??A@?BABAB?BA@A@?D?@?B?B?B?B?@?B?DAB?BA@?F?BAD?D?F@FBD@D@BDDDFBBBF@J@F?B?BABC@ABA@ADA@?BAD@D?D@B?D@B?@?@A@?B?DA@A@A?A?A?AAAECCA?AAA?A???A@A@ABAFADA@A????DA??FAB???@A@C??@C??BA????BA@???@?@?@?@?@?@?@@??@??@@?@?B?@???@C??AA?C?A?A?A??@A@?BA@A@A@?@CBAD?D?B?@@@@@B?B?B?@BD??@B??@B?????@@@B@@?@@B?@?@A@?BC?A@??A@?@A@????A???A????AAAAA?EC?A?C?A???A@??A@??A@?@A??@???@?@?B?@?B@B?@?@A???A???AA?AA??AAA?AA???A????@A@?@A??@?@?@???@@@@BBB@@@@D?@@@?@?@????@@@@@B???D???B??A??@?@?@?@?@@@@@@?@@??@?@?@?@?@?@A??@A@???@?@?@??A@??AAACA?A?A???A@A@A???A@??A@???@?@?@@@?BDB@@@??@@B@@?@@@?@@B@@?@@B?@?@@??@@??@@??A@?BA@??A@A@C@C@A???A???G@G?E@GBA?A@?@?@?@A??@??A?A@??A@A?A?A?C???CA??EA????EAEAE?M?K?K?CAG?G?E?G?A?E@EBM@G@A?E@CBC@CBC@C@G@E?G@G@E?A???A?A@A?A?A??@?@@?@BF@@?D@B@B@D@D@B?@?B?@??A??AAAAAA???A@A??@AFADAH?BAHCFADADAD?D@F?@?B@B@@??@?@?@ABABC@A@CBA@A@@@A??@A?A@A?C?G@C?A@?@??@B@B@@FBB@@@@?F?D?D?DADABABC@A?C?AAAAACAAC???A???A?A@A?A?A?A?A?A??@A@?DAB?@AD@@?B@@??@@@?B?B@BAD?DAB?F?BABCDA@??A@A@????A@A?A@E@EBC@MBC??@A@??@???@@??FAB?BADA@?DAB?BA@?D?B?@A@?@ADEHE@C@A@A?C@C?A?A??AAAAAA?A?C?A?A?AAA?A@A??@A@?@?@?@?@@?@@@BB@?@@B?@AB?B?B?B?@@?@??AB?@?B@@??B@B@B?F?B?BAB?DC@?BAB?B?D?B@B?@@B@?@@??@?B???B??@@@?@@@?DA??B?@?@?@@??@@???@A??@C@A?A?A@A?E?C?A?C?A?E?E?E?AAE?E?E?A@??A?A?A?????A?AAE?E?E@I?C@C@IBMFE@EBABA@??@@?@@?@?@?D?F?D?JAD?@?B@@@@@@B@@?@A@G@C@?@?@????A@????AB??GB?@???@??@?F?F?XCB?BA@AHE??BA??B?????B?@???D@D@B?D?@???B???@@@???@@?????@?????@???@A@??A@?@@@BB@?B?B?D?@AD?@A@??A?A@A?AAC?A?AA??A?A???A@EDGFGLGFARELCJ?D?F?D?B?D@@@B@BDBB?B"
        ]
      }
    },
    {
      "id": "AT-08-03",
      "type": "Feature",
      "properties": {
        "id": "AT-08-03",
        "end_date": "2021-10-01",
        "elevation": "low"
      },
      "geometry": {
        "type": "MultiPolygon",
        "coordinates": [
          "{yRaa{Aw@A_@BCA??@??C??@?DAH?BADAFC@AB?FABABCBC@E?E?ACIAE?C@G?C?AA?CCA??A?A@A@ABADA@?BADCNMBE@C@A?A?CAA???AAAAECCAACCA?AAA??A?A?C?A?C?AACAA?AACCA?ACAAACCECCEA?CECGAACACACAA?A?C?E?E?C@I?A?E?A@A?A?K?EC?A??@C@?@ADAF?DAB?\\Gb@GTGR?d@CTBZ@\\PJ?BAFAFAJAFCBCBCBG@EBEDCFCFCBC@A?A?C?CBCDG??BEBC@?B?FAJAHEHCLENENELCDAB?BA@A??l@ZVZZNj@LA\\W\\AX^Bb@Nl@JZ@f@Hn@Fd@PTRAd@OD??IBC@OHOHIDCBMFMHIHCBA@C@O?SIm@?a@Eu@@eCd@a@?cAK{AC_A?o@I_@A\n_pRaa{A@C@ABAF?B?@?@A@A@C??AA?AA?CAEA?AAA?C@A@??C@CACAECEECEAKACASGICMGGCECC?A?A@C@A@MVEHCBC@IDKDCB??A@A?A@??A?A@??EBA@???@??@?B@D?D?BA@?@?@?@??@BD??@@??@?BAB?@AB???@??@@?@@B?BB@?@?@@@A@?B?B@@?B??AB?@AD@D?@?B?@@???@?@@@@?@@B@H@@@@?@?B?@?@?@ABA@A@A@A\nkvRqa{A?C@A@AB?JADABA@A@A?AAAECGECC?AAA@C??@A@?@?@?D@HFB@B?B?@A@?FEDEDEHK@C@C?AACAAEAKCIAa@EG?E?A?A@?@?@?@DD@B@B?B?@ABC?C?C?AAEGCCCCCCSGEAC?E?A?C?A@C@EHABC@KDEBABCHA@ABA@?@?NABAD??@@?????@?@B@B@D@??@B@@@?@???@??A@A@AD?B?B?@@@@B?D@H@D@D?B?@?@?@?B@D@B@@@@@@?BA@?@A@A?AAC?AAAA?\nycRod{A?CCCCECAAAEAC?E?G?E?K?MBSDG@MFGFEFAD?@???@?@@??@?@@B?@A@?@?@A?A@E?A@E?C?C?A?CCAA?A@A??@A?A???A?????A????AA??A?AA??C???A?E?C?EAEA??A?C?????C???C@??IDA@C@C?YBG?G?A????A???AFC??@C????@A?????A?ABAFA@A?AAAACAAAACAA?E?K@E?G?E?A?A?A??AAA??@A@CDCDALGHCBABAH?DAD?D?@@@?????@?@?@???@AD?D?D?@@D?D?D?@?B?@?B?D?@?@A@?@?BA?A@??A??AA??AAA?A?C???E@A?AAA?AA???C???C?AA??ACAAAC?CAE?C?C?C@A?EBC?C@C?G?C?CACA??AA?C?A@C???AAAC?C?C?C?A@C?AAA?CCAA?AAAA?A?A?A?A@??A@?@@@?@?@?@?B?@@@@@@@???@?@AB?BA@A@ABIDEDA@A?A@C?E?A?C@C?E@A?E@C@C?G@??AA??A???@A?AB?LCBADCDA@A@?@A????@A@A??@ABE@C?C?G@C?E@EAC?C?CAA?AA?CAA?EAA@C?E@A?A@???@?@?@?@?@A@?@?@???@??@BB@@@@@?@?BA@CBC@E@E@E?E?G?A?AACAGCAAACAC???A@AB?FAB?@?@A@??A@?AA@A@ABC@ABA@C@C?A?A?AA?CACAA?G?EAE?E@E@G@IBC@I?E@G@A@??A@?@??@@@@@@???@A?C?A?C?EAEACACAEAA?GAACA??A?A@?@?@?@A@???@?D?FAFAD?FABABABCBABCDA@?FALADCDA@?F?D?F?F?B@J?J?L?D?D@D@????D@??B@??B?@?@?@?@A??@A@????A@??A?A?A@A@?FCDAF?FA??@???@?BABA@A@A??@A?C@A??AA??AA??AAA?C?AAA?CAAAA?AAA?CAAA??AACACEA?AAA?A???A??@A??@??A@A@?@???@?@B@@@?@A??@A?A?A???A?A@??A@A?A?A?A?A???AAA?AAAA?A?A?A?A?A@????C???E??ACAAAA?????A?AAA?AAEAACACCAAAA??A?A?A???A@A?A@?????@??@@@?@@??@@@??@???@??A@A?C?CAA?C?A?A???A???A@A??@A??@A??@???@?B?@DB@?@@@@?????@???@??A?A@A??@A??@CBA?A@A?C?AAA?CAAA?A????AC??AC??CE?A?C?CACAAAAC?E?E?C@ABA?A@A@C@A?A@???@?@?@?B@@??AB??A?C?A?A??AA???AAA?A?A?A?A?A???A?C@????C@??AB??ABA@??C?G@??E@????A@E@G@C@A@A@?@???@@@?@B@DB@@?@?@?@A@A@E@C?A?A@A?C?EAC?EAE?EAC@A?E@A@C@A@CBC@C?G?KAGACCGCEECEEAEAGCGAE?E?C@G?A?C@C?E@C?A?C?C?C?C?A?E?A?A@C@C?C@C@A??@A??@???@?@@@@@?@@@B@DDB@BB@?@@@?@@@@B@BB?@BB?B@@D?FBF?F@F?DAB?B?@?B@@?@@?@A@C?A?I?GAC@E@A?A@?@?@@?@@D@F@FBFBD@B@B@?@????@?@@????D@??D???F@??D???@?@???@A????@A?????A???A???AACAA??@A@?@AB?B?@??@@@@D?@@@??@@??@?B@??B?@?D???B?????@???@??A@??A??@A???C??CE?C?A@A??@?B?@?F@D@B@??@@?D????@@??@@????B@??H@@@B@@@??@@??B@??@@@?@???B@??F?@?B@????@D????@B????FB??LFB@@@@B??@B??@@??@@??HB??HB??TH??H@B@@@B@@@@@?B?@@@???@@?DB??FBDBB@DF@?@@??B@????B@????B???@?B??ABA@???@A?????A???A?A????AC??AAAC??@?@AB?FAT???HA??HA??BABAFAB?DAFADAB?D@B?B@@?@B@@B@@@B?@?J?H?F?D?B?B???B?@?B?@?B?D?B?@?@A@?@?@A??AAAAA?C?E?A?AAA????A???A?A????@AD?BA@?@A@A??@?BAB?DAB?D?D@F@J?D?DABC?A@AAC?A@C@??AFAD?@A@A?C?C",
          "a}Rqf{AB?B?@?B@@?@@?@A?A@C?A@CBA@ABAHABA@C?@]FE"
        ]
      }
    },
    {
      "id": "AT-08-03",
      "type": "Feature",
      "properties": {
        "id": "AT-08-03",
        "start_date": "2022-10-01",
        "elevation": "low"
      },
      "geometry": {
        "type": "MultiPolygon",
        "coordinates": [
          "ynRsl{AB?BA@A??l@ZVZZNj@LA\\W\\AX^Bb@Nl@JZ@f@Hn@Fd@PTRAd@OD??IBC@OHOHMHMFMHIHCBA@C@O?SIm@?a@Eu@@eCd@a@?cAK{AC_A?o@Ic@AKWBg@FW`@_@JQKGMIKMKKMMQSCCECKEGAMCGAC?E?A?`@Gb@GTGR?d@CTBZ@\\PJ?BAFAFAJAFCBCBCBI@CBEDCFCFCBC@A?C?A?CBCDG??BEBC@?B?FAJAHEHCLENENELCDA\nanR{j{AA?A???CAA?A?A?A@C@A@AB???B???@???B@@?B???@A@A@CB??C@C?AAA???AACECGAEAGCC?AAAA?CAC?E@E@C@ABA@?@AB?BAF?@??A?A?A???A?A?CCC?AAC?C?A@E@EBEBCBG@C@EBA?C@C@A@A@?@?@?@?@@?FD@@?@?@?@?@????A?A@A?EAA?E?A?C?C@A?A@A@??A?A?CAC?C?A?A@A?CBA@A?A@C?E@C@A?A?AA???AA??CAA?ACAEECCCCECCAC?C@E?E?EAGAG?E?G?G@S?K@C?A???A?C@A@A?A@C?G@C?A@C@?@???@?@BB@BB@DDB@FFBBFDDB??B@B@B?B?B?B@??@@@@?@?????@C@ABA??@?@?@@@FBNFHBHBHBH@F@F?DAB??A@A?AAC?A@A?A@?@?@???@@??@B@BB@@@@?@@B?FA@?B?@?BA?A@A??AE?C?A@A??@AB?@?@@@?BB?@@@?B?B?@?B??B@B?D@@A@?@A@?@?@?@@@@@@B@B@B?B@@AB?@?@??@@@???B@@??@@BBB@D@@@B?@@@?@@@?@@???B@@@@@@B@@@BB@@@??B??A?A@????C?GAEAIEGCIEEAA?A?C@C@CBAFEDEFCDCDE@EBC?A?A??AAA??@A@C@EDEBGDE@A@C?A?AAA?ACAGCE?GAGAI?GAKAE?I?CAA@A??@A??@?@@BBB?B?@A@??A?A?AACCCCAACACAEAG?ICEAE?A?A?C?A@A@CBEBA@A@A@E@A@C@A@CBADABADCDABABAF?D?D?B@@?@@@DBDBD@@???B@@AB?D?B?B?B@D@B?D@J@@?B?D?D?@?@@@?B@@@B???B???@A@A?ABC@C?A?A@?@?@AB?B?B?@???@?@A@A?A@???@?@?@??@?@?@@@@?@@B?@???B?DAB?@?D?B@D?@@@?@@@???@?DAD?D?FAD@B???B@??@@@?@?BA@A@CDE?A@A@A@?@???@?B@?@@@@@?B@BAB?B?BA@?@@?@@B@D?@@BABABCDCDEDCBA@A@A???A???AAA??AA?A?A?A@CBA@?BA@@D?HBB@@@B@BB@@@@?@@@?@@??@@?B?BABA@?BCBABA?A?A?AACAA?A?A@?@AB?DA@?B?B?B???B?@?B@@?@?@A@?@C@?@ADA@?BAB?HAFAB?@?B?@?B?D@@???@@?@@???@?@@@A@?B???B?@?@@??@?B@D?D?F?B?B???@A@?@?@?@?B?@@B??A@??A??AA?A?C?A@A??BC@A?A?A?C?C?C@A@A@?DAH?F@F?B?B?@ADCBABCBC@A?A???A?AAAAAC?I?E?G?G?G?G@IBC?C@A@A@ABA@A@C@CBEBABABADAD???BA@A?A?A?A?AAAA?C?EAC?C?A??A?A?C?E?A?C?EAECGCAAC?EAEAC?C?C@??A@?@?@@B?B?@A@A@A@C@C?A?AACAAAAA?A?A@A???A?CAAAE??AA?AAAAAC?G?C?E?C?C???A?AA?A?A?A@ABADA@AHC@?JADAFAD?D?D@B?D?F?J?F?J?L?@A@?@?BC@??A?AA?????AA??C?A?C?A@C?A?AA??AAAAAACAC?A?C?C?A???AAAA?AAA??C?A?A?A?A?A?A@???@A?A?G?E?C?CAA??AAA?A???C?A?AAA??CAC?E@A?A?C?C?A?A?A@A@?B?@@D?D@B?B?@AB?@A?A@EBE@A@C@GBC?E@G?G?A?I??@I?E@??AA??A???@A?AB?LCBAHCDABA@A@?@C?A?C@C?A?C?CAC?E?E?C?CACAAA??AA?C@A?C@?@CB?BA@?@?@?@?@?BA@A@ABC@E@C?C?GAEACAECCC???A?A????DABADA@???@A??@C??@E@C?C?C?A?AA?A?CAG?G?E?E@E?C@A@C@A@A?G@E?E?A@??A@?@?B???@?@????A@A?A?AAA?AAGCEACACAA?AA??AA??@A@ADA?AD?FAFAFADABABA@CBA@A@?BCDAB?F?DAB???D?F?F?H?J?H?F?J?H@F?B@D@B@??D?B?@?@A???A@??C?C??@A@AD?BAB?LADADA??@?@ABC@C?A@A??AA??AA??AAE?CAAAGAGCGECCCAA???A@A@A@A@?@??@@?@@??@?@A??@A?C@C@??A@A@A??@A?AAAAACAA?A???A?A@C?C@AAA?AAGCCACAAAAAACCACCCA?AAC?A@A???A@?????@@@@@@@@@?@???@????A@"
        ]
      }
    },
    {
      "id": "AT-08-03",
      "type": "Feature",
      "properties": {
        "id": "AT-08-03",
        "start_date": "2022-10-01",
        "elevation": "high"
      },
      "geometry": {
        "type": "MultiPolygon",
        "coordinates": [
          "anR{j{A@A?????A???AAAAAAAAA?A????@A??@?@AB?@@@?BB@BBB@@@@@@@BBB@F?@@@A@?BAB?@?@???@@@@B@@@@@??A@?@A@A??BABA@??A@??A?AA??AAA???A@A@A@A@A??@?B@BBFDFBF@@@B@D?@@??@@??@@??A@?@ABCBA@A???E@E@M@C?C@E?A@A@???B?BA??@??A@A?C?E???CAEACAG?IAK?G?I?K?I?G?G?E???C?E@G?C?E@CBA?A@C@ABC@C@E@G@G@G@E??@E@A@A@??@@??@@@?B@B@D@FB@@@?@@@?@?@A?????A?A???C?A@A??@AD?D?FA@?@ABA@ABAD?DAD?F?F?B@@?@??@?@?B?BABAD??AB??A@??A?E@C@E@?????@?@??BBDBB@D@F@B?B?DABA@C@A@A?C?A?A?A?A@A?CBC?ABA@?BA@??@@?@@@B?B?B?D?D@B?B?B?@AB?B?@ABA?A@C@E@IBC@MBC??@A@??@???@@??DAH??AH?@?F?F?DAB?FCBA@ADADC@A@??A@C?A?CAC?EAE?A?C@A@A@?@?B?B?@?@?DAB?B@??@@?@?@?B???@@@?@@?B@B?D?F?@?@??A??@A@?@?@?@?@?B???@@?@@@@@??@?B?B?@?B?B@@@@@@@??@@@?B?@AB?@?B???@@????@??@?@A?CBA?A?A@M?K?G?K?G?E?C?EAE?E?G@E@K@A?IBA@E@C@A@?@?@?@@@@???B?B?D?B?F?B?@@@@?@@@??@D@@?B?@??A@?@?@@@@@B@@@@?B?BA@A@A@A?A?CAC?A?A@A??BAB?B?D@D@B?@@FBDBD@B?@?D?B?@?@????@?B@B?D?B@@@@@?@?@?@?@A?C??@E@E@C@CDCBCBA@A@A@C@A@ABAB?HCFAF?F?F?D?H?B?@@@@?@?@???@A@CBCBC@EBA@C?C?G?GAI?E@A?A@A@?B?B?B?@?@A@CB??A@?@?B?@@@???@A??@C?AAC?A?A?A?A?A@??C?C?G?E?E?CAA???AAA?C???C?A?A@AAA???A??AAA??A?EAC?A?C?A?C?G@I@C?C@A?E@A@A?ABA?A@A?A?CAA?C???C?C?C?A?E@C?A@A??@?@@@@B?@?@?@C@C@CBA?C@C@C?A??AA??AAA?AAAAACCCAAACAICE?AAC@A?C@AB?@?@?@@@??@@?@???@??A@A@C@EBEDEBCBC@C@AAE?CAAAA??A@A?C?C@CAC?CAAAA?ACAA???A?A?A@A@?@EDABA@C@A?A?AA??CA??C?EAG@E?E?E@A???A?AAA?AAE?CAE?A?C?E@C???A?C?AAA?AA?A?A?AA?A?A???A??@A@A@A???A?C?C?C?A@A?A??@?@ABCB?@A@A@??C???C?AACAA?AAA?E?E?C?A?KAEAC?EACAC?C?E?C?A@CA??A?EAECECAA?AAA?C?E?E@G@C@CBE@E@C@EBC@ABA@ADA@A@A@ADCBC@A@AB?@?@?D?D@HBF?D@B@B@@@BBBB@@@?@???@A?A?CCCAC?A?A@??A@?@AB@H?D?J@F@H?F@F@D?FBB@?@@@?@?@ABA@EDCFEDADABA@??@@?@@?@?B?DCDABEBEDGDE@GBCBABA@?@?D@HDFBHDD@F@B?????@A@????CA?AACCAACAAAAAAA?C??AAA?AAA?AAC?AAEACACCAA??AA?C??AA?AA?A?C?A@CAC?CACAAAAAAAA?A?A?A@A?A@EAC?CA???C?A?C?CAA?ACCA?AAA?C?A@??A@?@?B@D??A@?@C@A?C?A?G@C?AAA?AACAACAC??AA??A?A?A??@A@?@@B?@A@?@C?E@G?GAIAICICICOGGCAA?A?A?A@?@CBA?A?????AAAAA??CAC?C?C?CACA??ECGECCGGCAEECAACCC?A?A???ABA@AB?FAB?@A@?@ABA@???@?B?JAR?FAF?D?F?F@D@D?D?BAB?B@DBBBBBDDB@?@@@?B@??@??@@@?@?BADAB?@A@?@ABC@?@A@?B?B?B@@?@???@A@A@?BAB?@?D?@?D@@?@A@??????A?A?A?AAAGEA??A?A?A?A@A@ABABA@?DCBAFABCDCDCDA@AB?B?@@B?BB@?@???@?@?@????A@G?C@C?A@A@CBADADAB?B@@?@@?@BB@F@DBFBD@@??@?@@B?BA??BC@A@A?A???CAA?C???A???C??@C@ABA@A@?@?@?B@??@?@?"
        ]
      }
    },
    {
      "id": "AT-08-03-01",
      "type": "Feature",
      "properties": {
        "id": "AT-08-03-01",
        "start_date": "2021-10-01",
        "end_date": "2022-10-01",
        "elevation": "high"
      },
      "geometry": {
        "type": "MultiPolygon",
        "coordinates": [
          "k}R_h{A@?@?@AD?@?H?BAD?D?B?@?@?B@B@B@@@BFBD@?BDDBBB@@B@?@B@@B?@@@@B?@?B?@?B?@?@@?@@@?BB@@BB@D@@?@??@@?B?@A@ABCDOLEBC@A?E@C@A@A@?@?@@?BB@??@?BAF?B@DBH?@?DADCBCBC@G@C?A@GBE@C@I?E@A????EWCMIGGXIJGIQNILa@]U?ACA?AB?@A@C@I@C@ABC@AB?@A@??AAAA?CAA?C?C????ACCDE?A??RGCCUSE?"
        ]
      }
    },
    {
      "id": "AT-08-03-01",
      "type": "Feature",
      "properties": {
        "id": "AT-08-03-01",
        "start_date": "2021-10-01",
        "end_date": "2022-10-01",
        "elevation": "low"
      },
      "geometry": {
        "type": "MultiPolygon",
        "coordinates": [
          "a}Rqf{AB?B?@?B@@?@@?@A?A@C?A@CBA@ABAHABA@C?@]FE",
          "{yRaa{Aw@A_@BCA??@??C??@?DAH?BADAFC@AB?FABABCBC@E?E?ACIAE?C@G?C?AA?CCA??A?A@A@ABADA@?BADCNMBE@C@A?A?CAA???AAAAECCAACCA?AAA??A?A?C?A?C?AACAA?AACCA?ACAAACCECCEA?CECGAACACACAA?A?C?E?E?C@I?A?E?A@A?A?K?EC?A??@C@?@ADAF?DAB?B?B@H@J@J@B@@@B@D@BB?BB@DDBBDFJF@DHDBFBFDBDBD@?D@DAB@BAB?BGDMJEDIHAF?DCJAF?D?DAHBBADBFFF@B"
        ]
      }
    },
    {
      "id": "AT-08-03-02",
      "type": "Feature",
      "properties": {
        "id": "AT-08-03-02",
        "start_date": "2021-10-01",
        "end_date": "2022-10-01",
        "elevation": "low"
      },
      "geometry": {
        "type": "MultiPolygon",
        "coordinates": [
          "_}Roh{A\\Gb@GTGR?d@CTBZ@\\PJ?BAFAFAJAFCBCBCBG@EBEDCFCFCBC@A?A?C?CBCDG??BEBC@?B?FAJAHEHCLENENELCDAB?BA@A??l@ZVZZNj@LA\\W\\AX^Bb@Nl@JZ@f@Hn@Fd@PTRAd@OD??IBC@OHOHIDCBMFMHIHCBA@C@O?SIm@?a@Eu@@eCd@a@?cAK{AC_A?o@I_@AACGGCG@ECC@I?E?E@GBK?E@GHIDELKFE?C@CAC@CAE?EEAECECCGCGIEAEKGEGCCEECA?CCCEACAAACAKAKAIACAC?\n_pRaa{A@C@ABAF?B?@?@A@A@C??AA?AA?CAEA?AAA?C@A@??C@CACAECEECEAKACASGICMGGCECC?A?A@C@A@MVEHCBC@IDKDCB??A@A?A@??A?A@??EBA@???@??@?B@D?D?BA@?@?@?@??@BD??@@??@?BAB?@AB???@??@@?@@B?BB@?@?@@@A@?B?B@@?B??AB?@AD@D?@?B?@@???@?@@@@?@@B@H@@@@?@?B?@?@?@ABA@A@A@A\nkvRqa{A?C@A@AB?JADABA@A@A?AAAECGECC?AAA@C??@A@?@?@?D@HFB@B?B?@A@?FEDEDEHK@C@C?AACAAEAKCIAa@EG?E?A?A@?@?@?@DD@B@B?B?@ABC?C?C?AAEGCCCCCCSGEAC?E?A?C?A@C@EHABC@KDEBABCHA@ABA@?@?NABAD??@@?????@?@B@B@D@??@B@@@?@???@??A@A@AD?B?B?@@@@B?D@H@D@D?B?@?@?@?B@D@B@@@@@@?BA@?@A@A?AAC?AAAA?\nycRod{A?CCCCECAAAEAC?E?G?E?K?MBSDG@MFGFEFAD?@???@?@@??@?@@B?@A@?@?@A?A@E?A@E?C?C?A?CCAA?A@A??@A?A???A?????A????AA??A?AA??C???A?E?C?EAEA??A?C?????C???C@??IDA@C@C?YBG?G?A????A???AFC??@C????@A?????A?ABAFA@A?AAAACAAAACAA?E?K@E?G?E?A?A?A??AAA??@A@CDCDALGHCBABAH?DAD?D?@@@?????@?@?@???@AD?D?D?@@D?D?D?@?B?@?B?D?@?@A@?@?BA?A@??A??AA??AAA?A?C???E@A?AAA?AA???C???C?AA??ACAAAC?CAE?C?C?C@A?EBC?C@C?G?C?CACA??AA?C?A@C???AAAC?C?C?C?A@C?AAA?CCAA?AAAA?A?A?A?A@??A@?@@@?@?@?@?B?@@@@@@@???@?@AB?BA@A@ABIDEDA@A?A@C?E?A?C@C?E@A?E@C@C?G@??AA??A???@A?AB?LCBADCDA@A@?@A????@A@A??@ABE@C?C?G@C?E@EAC?C?CAA?AA?CAA?EAA@C?E@A?A@???@?@?@?@?@A@?@?@???@??@BB@@@@@?@?BA@CBC@E@E@E?E?G?A?AACAGCAAACAC???A@AB?FAB?@?@A@??A@?AA@A@ABC@ABA@C@C?A?A?AA?CACAA?G?EAE?E@E@G@IBC@I?E@G@A@??A@?@??@@@@@@???@A?C?A?C?EAEACACAEAA?GAACA??A?A@?@?@?@A@???@?D?FAFAD?FABABABCBABCDA@?FALADCDA@?F?D?F?F?B@J?J?L?D?D@D@????D@??B@??B?@?@?@?@A??@A@????A@??A?A?A@A@?FCDAF?FA??@???@?BABA@A@A??@A?C@A??AA??AA??AAA?C?AAA?CAAAA?AAA?CAAA??AACACEA?AAA?A???A??@A??@??A@A@?@???@?@B@@@?@A??@A?A?A???A?A@??A@A?A?A?A?A???AAA?AAAA?A?A?A?A?A@????C???E??ACAAAA?????A?AAA?AAEAACACCAAAA??A?A?A???A@A?A@?????@??@@@?@@??@@@??@???@??A@A?C?CAA?C?A?A???A???A@A??@A??@A??@???@?B?@DB@?@@@@?????@???@??A?A@A??@A??@CBA?A@A?C?AAA?CAAA?A????AC??AC??CE?A?C?CACAAAAC?E?E?C@ABA?A@A@C@A?A@???@?@?@?B@@??AB??A?C?A?A??AA???AAA?A?A?A?A?A???A?C@????C@??AB??ABA@??C?G@??E@????A@E@G@C@A@A@?@???@@@?@B@DB@@?@?@?@A@A@E@C?A?A@A?C?EAC?EAE?EAC@A?E@A@C@A@CBC@C?G?KAGACCGCEECEEAEAGCGAE?E?C@G?A?C@C?E@C?A?C?C?C?C?A?E?A?A@C@C?C@C@A??@A??@???@?@@@@@?@@@B@DDB@BB@?@@@?@@@@B@BB?@BB?B@@D?FBF?F@F?DAB?B?@?B@@?@@?@A@C?A?I?GAC@E@A?A@?@?@@?@@D@F@FBFBD@B@B@?@????@?@@????D@??D???F@??D???@?@???@A????@A?????A???A???AACAA??@A@?@AB?B?@??@@@@D?@@@??@@??@?B@??B?@?D???B?????@???@??A@??A??@A???C??CE?C?A@A??@?B?@?F@D@B@??@@?D????@@??@@????B@??H@@@B@@@??@@??B@??@@@?@???B@??F?@?B@????@D????@B????FB??LFB@@@@B??@B??@@??@@??HB??HB??TH??H@B@@@B@@@@@?B?@@@???@@?DB??FBDBB@DF@?@@??B@????B@????B???@?B??ABA@???@A?????A???A?A????AC??AAAC??@?@AB?FAT???HA??HA??BABAFAB?DAFADAB?D@B?B@@?@B@@B@@@B?@?J?H?F?D?B?B???B?@?B?@?B?D?B?@?@A@?@?@A??AAAAA?C?E?A?AAA????A???A?A????@AD?BA@?@A@A??@?BAB?DAB?D?D@F@J?D?DABC?A@AAC?A@C@??AFAD?@A@A?C?C"
        ]
      }
    },
    {
      "id": "AT-08-03-02",
      "type": "Feature",
      "properties": {
        "id": "AT-08-03-02",
        "start_date": "2021-10-01",
        "end_date": "2022-10-01",
        "elevation": "high"
      },
      "geometry": {
        "type": "MultiPolygon",
        "coordinates": [
          "_pRaa{AA@A@A@C@A@A?A?C?A?A?AAIACAAAA?AA?A?A??AAC?A?E?EAA@C??@C?A?CAC?A?A@AAA?A?CCC?AAA??AA???C?A@C?C@A???AA??CE?AA?A?A?A?C@E?E?CAA????A??@ADC??@A@???@A@?@A??BCJEHEBABCDILW@ABA@A@?B?DBFBLFHBRFB@J@D@DBBD@D@BAB?BA?A@?B@@?@D@B@@??@@@??ABA@A@A?C?G?C@A@AB",
          "kvRqa{A@?@@?@@B?@A@A@A?C@A?AAAACAEACAA?A?A?C?E?EAIAEAC?AAAAC?C?E?A@A@?@A???A?A?AAAC??EACACA?A?A????AA??@E@C?O?A@A@C@ABI@CDCJEBA@CDIBA@AB?@?D?B?D@RFBBBBBBDF@@B?B?B?@C?A?CACACEE?A?A?A@A@?D?F?`@DH@JBD@@@@B?@ABABIJEDEDGDA?A@C?C?CAIGEAA?A?A?A@??AB@@?@BBFDDB@@?@A@A@C@E@K@C?A@A@?B",
          "ycRod{A?B?BA@A@E?G@?@A?AB?@@BA@?@CBE@E?K?GAEAE?C?E@C?C@A???A@A@A?C@E?A@?????@?@???@??@?@@@?D?B?@?@@@@??A@A?A?A@A?C?E?C?A?C?A?C???C?C?E?G?I?K?A?C?AACAAAACA?CAC?EAC?E@G@E@C?G@C@C@??I@??I@??U?G@C?A@A???@B@@??@B?????@?@???@????A@??A?C@?@C?A???C?????CA????CA??AAA?EGCAECGC??ECA??A??AA?A?CAAAACAAACAIA??UI??IC??IC??AA??AA??AC??ACAACAMG??GC????AC????AE????CAA?G???CA??A?A?AA??CA??AA??AACAAAIA??CA????AA??AA?????EAA??CAEAGAA?C?A???A@?@?BBD???B??A@???@A??@A???A?????C???E?A?C???CAA???AA??AA?AAEAA?AA?C?C?A@A?A@??@@@B?@???@???@????A@????A@??A?A???E???GA??E???EA????AAA??????ACACAEAGCGCGAEAAAA??A?A@A@?DABAF@H?@?B?@A?AAAA?CAA?C?C?E@G?GAG?GCE?AA?CCC?ACCCAAAAAA?AAA?CCCAEECAAA?AAAAA?A?A???A@??A@?BABAB?BA@A@?D?@?B?B?B?B?@?B?DAB?BA@?F?BAD?D?F@FBD@D@BDDDFBBBF@J@F?B?BABC@ABA@ADA@?BAD@D?D@B?D@B?@?@A@?B?DA@A@A?A?A?AAAECCA?AAA?A???A@A@ABAFADA@A????DA??FAB???@A@C??@C??BA????BA@???@?@?@?@?@?@?@@??@??@@?@?B?@???@C??AA?C?A?A?A??@A@?BA@A@A@?@CBAD?D?B?@@@@@B?B?B?@BD??@B??@B?????@@@B@@?@@B?@?@A@?BC?A@??A@?@A@????A???A????AAAAA?EC?A?C?A???A@??A@??A@?@A??@???@?@?B?@?B@B?@?@A???A???AA?AA??AAA?AA???A????@A@?@A??@?@?@???@@@@BBB@@@@D?@@@?@?@????@@@@@B???D???B??A??@?@?@?@?@@@@@@?@@??@?@?@?@?@?@A??@A@???@?@?@??A@??AAACA?A?A???A@A@A???A@??A@???@?@?@@@?BDB@@@??@@B@@?@@@?@@B@@?@@B?@?@@??@@??@@??A@?BA@??A@A@C@C@A???A???G@G?E@GBA?A@?@?@?@A??@??A?A@??A@A?A?A?C???CA??EA????EAEAE?M?K?K?CAG?G?E?G?A?E@EBM@G@A?E@CBC@CBC@C@G@E?G@G@E?A???A?A@A?A?A??@?@@?@BF@@?D@B@B@D@D@B?@?B?@??A??AAAAAA???A@A??@AFADAH?BAHCFADADAD?D@F?@?B@B@@??@?@?@ABABC@A@CBA@A@@@A??@A?A@A?C?G@C?A@?@??@B@B@@FBB@@@@?F?D?D?DADABABC@A?C?AAAAACAAC???A???A?A@A?A?A?A?A?A??@A@?DAB?@AD@@?B@@??@@@?B?B@BAD?DAB?F?BABCDA@??A@A@????A@A?A@E@EBC@MBC??@A@??@???@@??FAB?BADA@?DAB?BA@?D?B?@A@?@ADEHE@C@A@A?C@C?A?A??AAAAAA?A?C?A?A?AAA?A@A??@A@?@?@?@?@@?@@@BB@?@@B?@AB?B?B?B?@@?@??AB?@?B@@??B@B@B?F?B?BAB?DC@?BAB?B?D?B@B?@@B@?@@??@?B???B??@@@?@@@?DA??B?@?@?@@??@@???@A??@C@A?A?A@A?E?C?A?C?A?E?E?E?AAE?E?E?A@??A?A?A?????A?AAE?E?E@I?C@C@IBMFE@EBABA@??@@?@@?@?@?D?F?D?JAD?@?B@@@@@@B@@?@A@G@C@?@?@????A@????AB??GB?@???@??@?F?F?XCB?BA@AHE??BA??B?????B?@???D@D@B?D?@???B???@@@???@@?????@?????@???@A@??A@?@@@BB@?B?B?D?@AD?@A@??A?A@A?AAC?A?AA??A?A???A@EDGFGLGFARELCJ?D?F?D?B?D@@@B@BDBB?B"
        ]
      }
    },
    {
      "id": "AT-08-04",
      "type": "Feature",
      "properties": {
        "id": "AT-08-04",
        "end_date": "2022-10-01",
        "elevation": "low"
      },
      "geometry": {
        "type": "MultiPolygon",
        "coordinates": [
          "ckRka{At@A`@Dl@?RHN???EBC?E@E?G?EBC@AB?@@D?B?DA@ABCBCBABADAHADCBEBKDUHQHSHQJSFEBA@GDGFCDELAFCDCDEDEDIFED??A@E@EBE?G@K@G@GDCBEBMJMHIDIDEBEF??IFIDKFKDMDQBI@A?C@C?A@WASKu@AMGEAC?C?C?AA?????AEEBAF?BAD?L@D@BAD?DA@?BADGDA@?@?@?DB@@BFDB@@B@B?B@B?D?F?FATCFABADA?A?A?A?AAACAACICICEAGCMGOIGEECAC?A??@ABA@?B?D?D?H@LBH@B?@?VHB?B@H?J?HAD?@?FCBABA@A?A???AA??AC?G?EAC??AA?AC?A?A@??ABADADALEJCNCDABA@ABEDGBABA@?@?F?H@D?B?BABA@A@A@E@C?G?K@I?EAC?AAACAEAI?CAC@C?A@A@A?C?G?GAE?E?G?E@A@AB?@@@?@@@?B?D?B?@?@ABA@EBEBQFI@M?Q@M@UDW@e@@_@ASAYCSAEAAA???C@A??@A??TCN?J?Z@H@JAH?BABA@A?C?AACA?EACA?AAA?A?A@AB?J?H?n@DN@F?BAB?BA@???@?@A?AACAAAEAAA?AAAAAC?A?CAA?A?AAAAAAA?AAACGA?AAC@A?C?A@A?A?A?AAA??A??@C@A@C@CBADAFA@?D?@?D@DBDBDD??@@@@@?@?@?DAHCBC??@A@ABAB?B?@A?????A??A?CAE?GAIAKAICIAI?EAE?E?A@C?A@C???C@A?AAC?CCECCAEAG?E?C?C?C?C@EBCDABAB?BAB?@?@?@A@A@?@?BCDC@E@??A?A?A?C?A??AAA?A?A??AA?A?A@??A?CAA?ABE?A@C@A?A@A???A?AAAA?AAACAA??AAA??AA?C@E?C@C@A?A??AAA?E?AAAC?CAMCMCE?K?Q@E?AAQAKAE?I?G?QAHIB@^Cv@@^@n@H~@?zABbAJ`@?dCe@\n{jRk`{AA@A??@??A?A???A?AAA?A??AA???E???A?C??@E@A?EBA@C?I@??E@??A??@??A@???@?@???@?@@???@@??@?@??@F?H@@@@?@A@???DA@?B@DB@??@D@@?B???F@??B??AB???DA??@??A@??A???A????AC????CCAA?C??@A??BA@?D???JCFA??BA@???@A???A@??A??AA???AA??AA?A??AA?A?E???G@??Q@A?C@??E@????A?"
        ]
      }
    },
    {
      "id": "AT-08-04",
      "type": "Feature",
      "properties": {
        "id": "AT-08-04",
        "end_date": "2022-10-01",
        "elevation": "high"
      },
      "geometry": {
        "type": "MultiPolygon",
        "coordinates": [
          "o|Ru`{AF?H?D?J@P@@@D?PAJ?D?LBLBB@B?@@?@?D@@?@@?@?BABAD?BA@??@@?@@??@@@B@@@?@@?@?@??A@?@A@AB?@CD?@@@?B?@A??@?@@@???@?@@@?@@?B?@?@?@???DABABE?C?A@A@A?A?A?A@C?C@C@CBEDCBAB?B?B?D?F?D@B@DBBBB?@@@?BA??B?@AB?@AD?D?D@H?H@HBJ@H@F@D?B@@????@????A@C?C?C@A@A@??CBIBE@A?A?A?AAAA??EEECECEAA?E?A?G@E@C@ABABA@AB???@@?@@@?@?@?@AB?@?BA@@@?BF@@?@@@@@@@?@?@@@?B?@@B@@@@@?@@@D@@@B?@A@A???A?C@C?C@G?OAo@EI?K?C?A@?@?@@@?@B@D@@?@B?@?BA@C@C@I?K@IA[AK?O?UB??A@??A@?B??@@D@R@XBR@^@d@AVATELAPAL?HAPGDCDC@A@C?A?A?C?E?CAA?AAA?A@C@ADAF?D?D?F@F?B?@?@A@AB?BAB@H?D@B@@@?@@B?DAH?J?FABADA@A@C@C@C?E?IAG?A?A?C@C@EFCDA@C@E@OBKBMDE@E@C@?@A??@?@@B@??@B?D@F?B??@@??@???@A@C@C@GBA?E?I@K?I?CAC?WIA?C?IAMCIAE?E?C?A?C@A@???@@BDBFDNHLFFBD@HBHB@BB@@@?@?@?@?@E@C@G@UBG@G?E?C?CAC?CAAAECCGAAECA?A?A?E@EFC@A?E@E?C@EAMAE?C@G?C@AA[AFMGOHKl@ONQWMSIW]JY^E@Y?Go@aAG@A?QK]??QYC",
          "{jRk`{A@?????DA??BA@?PA??FA??D?@?@??@@?@??@@??@??@@???@A??@??A@??A?C@??G@KB??E?A?C@??A@???B@@BB????@B?????@???@A??@A???E@??C??@C???GA??C?A?EA?AA?ECCAA?E@??A?A@A?AAIAG??AA?A???AA??A??A?A???A?A??@A???A@???DA??HAB?@ADC@?DA?AB?@???D???@??@@?@?@@@???@?@????A@?@A"
        ]
      }
    },
    {
      "id": "AT-08-04",
      "type": "Feature",
      "properties": {
        "id": "AT-08-04",
        "start_date": "2022-10-01",
        "elevation": "low"
      },
      "geometry": {
        "type": "MultiPolygon",
        "coordinates": [
          "_zRaa{Ab@@n@H~@?zABbAJ`@?dCe@t@A`@Dl@?RHN???EBC?E@E?G?EBC@AB?@@D?B?DA@ABCBCBABADAHADCBEBKDUHQHSHQJSFEBA@GDGFCDELAFCDCDEDEDIFED??A@E@EBE?G@K@G@GDCBEBMJMHIDIDEBEF??IFIDKFKDMDQBI@A?C@C?A@WASKu@AMGEAC?C?C?AA?????AEEBAF?BAD?L@D@BAD?DA@?BADGDA@?@?@?DB@@BFDB@@B@B?B@B?D?F?FATCFABADA?A?A?A?AAACACCGCICEAGCMGOIGEECAC?A??@ABA@?B?D?D?VDL@XHB?B@H?J?HAD?@?FCBABA@A?A???AA??AC?G?EAC?AAAC?C@??ABADA^KNCDABA@ABEDGBABA@?@?F?H@D?B?BABA@A@A@E@C?G?K@I?EAEAACAEAI?CAC@C?A@A@A?C?G?GAE?E?G?E@A@AB@D@@?B?D?B?BABA@EBGBOFI@M?Q@M@UDW@e@@_@ASAWCA?CAAA?A?C?ABA@A@?F?J?N?J@J?J?NAFAD?DA@A?A?AAAAACAG?CA??AA?A?A??@A@AB?D?H?R@LBF?F?J?H?BABA@?@A?A??ACAEAECCAECEEEACAA?AAC?CAAA?A?C@C@C@A?A?A?AAA??A@C@A@C@CBADAFA@?F?D@DBDBDD@@@@@?@?@?DAHCBC??BCBAF?@A???A??A?IAGAIAKAICSAEAK?A@C?A@C?C@A?AAC?IGCAEAG?E?C?C?C?C@EBEHABAF?BCD?@?BCDC@E@A?C?C?A??AAA?AAE?A@??A?CAA?A@E@A@C@C@A?A?AAACAACAA??AAA??AA?C@E?C@C@A?A??AAA?E?AAAC?CA[GE?K?Q@E?SCKAE?I?G?QAHIB?^Ar@@\nakRg`{AA???A?EAAA??E?E??@E@A?EBA@C?I@??E@A@A@?@?@?@?@@?@@B?F@H@@@@?BADA@?B@FBDB@?B?F@B??AB?DABA?A?A??ACCCAA?C??@A??BA@?D???JCFADA@A??@A?A??AA?AA?AAA?AAG?G@S@C@E@C@A@??A?"
        ]
      }
    },
    {
      "id": "AT-08-04",
      "type": "Feature",
      "properties": {
        "id": "AT-08-04",
        "start_date": "2022-10-01",
        "elevation": "high"
      },
      "geometry": {
        "type": "MultiPolygon",
        "coordinates": [
          "o|Ru`{AF?H?D?J@RBD?PAJ?D?ZFB@B?@@?@?D@@?@@?@?BABAD?BA@??@@?@@??@@@BB@@@?@?@A@ABABA@AD?@@@?B?@A??@@D?@@@?@@?B?B?@?DABABE?C?ABE?C@G@CDIDCBAB?B?B?D?F?D@B@HFB?@@@?BAB?@AB?@AJ?D@R@HBJ@H@F@H@@????@??A@G?C@CB??CBIBE@A?A?A?AAAAEEECECEAG?A?G@E@C@ABABA@AB?@@?@@@?@?@?BABABA@?@?@@?B@B?@@@@BDDBD@DBB@D@D@B???@A@A?C@C@I?K?G?G?MCSAI?E?C?A@A@???@?@@@??B@F?B@@@@@?@?@A@E@E?G@O@K?K?KAO?K?G?A?A@C@?@?B?@@@B@@?VBR@^@d@AVATELAPAL?HANGFCDC@A@C?C?C?E?CAAAE@C@ADAF?D?D?F@F?B?@?@A@AB?BAB@H?D@B@@@@D?DAH?J?FABADA@A@C@C@C?E?IAG?A?A?C@C@EFCDA@C@E@OB_@JE@C@?@A??B@B@@B?D@F?B??@@??@???@A@C@C@GBA?E?I@K?I?CAC?YIMAWEE?E?C?A?C@A@???@@BDBFDNHLFFBD@HBFBBBB@@@?@?@?@?@E@C@G@UBG@G?E?C?CAC?CAAAECCGAAECA?A?A?E@EFC@A?E@E?C@EAMAE?C@G?C@AA[AFMGOHKl@ONQWMSIW]JY^E@Y?Go@aAG@A?QK]??QYC",
          "akRg`{A@???@ABADABARAFAF?@@@?@@@??@@@???@A@??A@E@G@KB??E?A?C@??A@???B@@BB@B???@?@C@E@C??@C?GAC?A?ECGCCAA?E@C@A?AAIAGAC?AAA??A?A?A?A@A@ADA??HAB?@ADC@?DA?AD?D???@@D@@???@?"
        ]
      }
    },
    {
      "id": "AT-08-05",
      "type": "Feature",
      "properties": {
        "id": "AT-08-05",
        "end_date": "2021-10-01",
        "elevation": "low"
      },
      "geometry": {
        "type": "MultiPolygon",
        "coordinates": [
          "edReb{AHENINIBAHC??NE@ALAFAVCNAHAD?@?DCB?BABAHEHEDAHCHALAHCNCHENIDCDEHEJGHCFCFAD?H?H?FAJAB?BABDDFBFDFDBDDHBJ@??VZ?\\NJ[Ac@NINA???A?C???A?A?A?AAAA??????ACA?CA?A?A???ABG?A?C???AA?AA?A??A?CAA?A?A?A???C?A@C@??A@A@??CFA@?@?@?@??@B??BB???@?@A@??CB??A@?@??A@?@@??@?@?@?@????@D?@?@???@A?????A?A???A?AA??ME?AGAAAEAA?C?A???A?A?A@A??@??A@A@???B?@??@@?@??DB??B@??FBB@FF??HFBD@@@BCN?@?@?@@@??@@@??@@?B??@@?CBAR@NL??@???@????AB??AB???@???????@?@A@A@??A@A?CACACAAAAAA?A?A?A@A?A@??A?AAA?A?A?A?A?A@A???????A????@A??????????@A?A@A?A?EAA?CACAC?ACAA?A?A@A??@?@A@A@?B?@A@?@A@A@A@?@??A??????AAA?A?AA??AA??@A???A@??A???A?A@??AA???AAC?A?CA??EAA??A??A?@A??@?@AD?B?@?D@@?B???@A????AAACAAAA?A?A?AAAAA??CAACCACAAAAA?A???A?A?A?A??CAA?A?C??@C?C@A@??AAA?AAAC?A?C?AA???A?C@C@A@A??A???C?C@C@A??A?AA??A?A@EBA???A??A??@C?A?AAAA?A?E@C@C?CAC?A?AAA?AA???A??@??A??@A??????AA???????A??A?A?????C???????A???A@????A????@?@??A@???@?@A??????@A??????@????@??????@@?D@@?@@?@@@@????@???@???B??@@????@B??@@??D@??JD??HB??FB??@@@@?@?@A@A?A?C?E?EACAC?C?E?EAE?C?A@A?C@A?A@???@??@??@B?@@??@@?????@@??@???@@?D?D@B?B???@@@@@??@???@???@@?B@D@@?D?@@@??@?@???@????A@?@?@?@@@?@??A@A??@C?A?A?A?GCCCCACAAAAAA?C?C?A@C?A?A?A@C@??A@???@?@@@??@@@@@@@@?@?@?@?@?@A@?@A@A???A@A?I?G?E?C@A@CDAB@B?B@??@?@@@@@?@??@@?@@?@?@@B@@@??@@???@??A@??A@A?C@E?C?A@C?CAA?A?AA??A?AAAAAAAA?AAA???C?A?C?C?C@A????@I??@G??BG@ADEFE@C@C@CACAAACCCAAGAAAAA?A?A?E@C@C?A?AAAA?AACACAA?AAC?C@A?E?A@C@?@AB?@A@??A@A@?@E?A@A?A?AAA??C???A?A?A???A@??A??@A@??A?A?AAAAA?C?AAAAA?A?C??AA?A?A?A???A???AA?????A?A?A???A@???BABADA@A?A@C?A?A?A?C@????A@??A@A?AAC?AAA?AA??AAA?A?A@A?C?A?AAAA??A?A?A?A@??ABA?C@C@C?A?A?A@A?A?A@??A@???@?@??@@@B@@@@B@BBDBFD@@@B?@?@??A?A@C?C@C???C@?@???@@?@@F@@@F?D@??B@F?B@B@FBDBD@NBB@?@?@A@??A??@???@?B?@?@A@ABA@?@??A@C?A?A?AAA?AA?????A@??A@A@??A@A??AA?AAA??C?A?A?A?C???CACAC?E?C?A?A@A??@?@???@C@A@A?A?A?AAAAAAC?A?A?A?A?A@??A@???@?@?B@@@@@??@DB????@@@@?@?@?@?@?@????BB@??BA?A@E?C?A?AAA???A@A?A@A@?@?@?@?@@?@@@@@?B?B?@?@@B@??BB@??@?@?@A@??AB??A@A?A@A?C?AAAAAAAACAA?EACCECEECAEEAAEACCEAC?C?CAE?A???A?E?C@A@A?A@?@?B@BA@ABA?A@A?E?C?EAECCECAC?C?C?C@C@?@???@?@???@@@??A@?@A@A@E@A@C@A@C@A?A@A@?@???@???@??@@@?BB@@@??@@??@?@A@?@AB?@A@?B?@?@??A@?@?@???@??B@B@B?@@@????@??A@?@A@???@?@@@@@@@@?@?B?F???D?@?@??@???@?@A??B???@??@@@@??@@?????@???@@@@@@@??@@?????@A?A@A?????A????@??????A@??@@?????@@@??????B???@????@@??????@?????@???@A@??A@???B??@D???D??@D???B?@?@A?AF??EH?@A???C@????A@??C?????CA??DSMMCc@w@y@Oa@MIDEHGDEDEBEBE@GDMBEFGFE@ADCRGPKRIPITIJEDCBC@E@I@E@CBCBC@C@A?E?CAE?A@CBADCF?D?DAB?DC??BA@ABCHILILGBC"
        ]
      }
    },
    {
      "id": "AT-08-05",
      "type": "Feature",
      "properties": {
        "id": "AT-08-05",
        "end_date": "2021-10-01",
        "elevation": "high"
      },
      "geometry": {
        "type": "MultiPolygon",
        "coordinates": [
          "o`RyzzA_AAQLuAb@s@Q]@GDRFCN_@HEVLDZl@OJBPGXq@RKAEO@E??B@????B???@A????BA??@??ADI??@G@??A?A?C??AE???E??AE???C??@A??@A?A???A?????A????A??A??A???C???????AA?A????AA??@A???????A??@?????@?@A@??A????AA??AAAAAA?A???A????AA??AAAA???A???C@??A?A???AA?A?E???G?C?A?A?AAAAAA?A?A??@A?A@A???A??A?AAC?CACA???A???A?A@A???A?A?C@A?A@C?A@A?A?AA??AA?AACCA?AA???A???A???A@A@A@?BA@ABA@ADA@A@A?A@A??AA?A???A?A???ABABAB?B?B?B@BDDBD@B?D?@?@A@?@C@AAC?C?A@A@?@ABAD?@???@?D?B@B?B?D@BBD@@@DDB@DDDBBBD@@?B@@@@@@@@@B?@?@A@?@A??@C??@A?A?A?AA?CC??CAAAA?C?C?A?AAAAA??A?A?A?A@A@A@?@A??@?@@@?B?D?@A@??CA?CC?????A?A?A?A?AAAAA????EC?AA?AAAA?C?A?A??@A??@A@?@?@?@?B?@@@@@@@?@?@?@ABA?A???A?A@?@A@?B?D?B?B@B@??B?@?@?@?B???@@?@@@??A@?@A?A@?@A??@????@@@?@@@?@?B?@A???A@A@C@A?A?A?C?A???A@???@A?A?ACAOCEAECGCCACAG?CA??EAG?AAGAAAA??A???ABA??B?BAB?@A@????A?AACAAGEECCCCAAAAAACAA???A?A??@A??@A@?@?@A@?@?B?BABA@?@C??@A@?@?@???@@@@@?B?@?@A@?@?@@??@@@?@@B?@@@?@A??@A????BA@?@?@?B?@A@?@A@E@C?C??@A??@?@?@?????@??@???@???@?@?@@@???B?@@@@@?@?B@@@@?@?@?@A?A@???@A??@???@?@?@???B@?@@@?@?@AD??A@A@A??@A?A@C?ABA@AD?@?BAB?@@@?B@B@@@@?@@?@?@ABAB?D?@?@@@@@F@@@BB@B@@@BABABABGDEDA@CF??AF??AH????A@?B?B?B?@?B??@@?@@@@@@@@@@???@@@?@?B@B?@AB?D?BA@?@A??@A???A??AA??AACAAAA?A??AAA???AAAAA?A?AA??CAC@CBE@ABAD?F?H?@?@A??@?@A?A@A?A?A?A?A?AAAAAAAAA??AA?A?A??@A??BA@A@?@?B?@AB?B?@?@@@@B@B@BBFB@?@?@?B??A@?@A???AAA?A?A?A@A?????A???A?AA?AAE?A?EACAA??A???A???AA?AAAA??C?C?EAE?A??A???AA??A????AA??AAC??AA????A??@A@?BA@?@AB?D?D@D?B?B?B@D@D?B?@?@?@A?A?AAAAA??GC??IC??KE??EA??AA??AC????AA???C???A???A??A?AA?AAAA?EAA??A????A??????A????@??A????@??A?A??@A???A?A??@?????@A??@???????B?????@?@????@??????@@??????A@???@A????@??@@@?@@@?B?B@B?BADA@?@?@@?@?@AB???@@???@?DC@A@???@@@???A@AB?B?B???@@?@ABABA@???@??@?B?@@B@@@?@@??@ABAB??AB?@?@?B@???@?@?@?@???@@@@@B@B@@BB@??@@@@?@?@?@@@@@@B@@????A@??C?A?EAA?C?E?A@A???A@@????@@?D@??B@@?B?@@??@??@A??@?@???@A??@??A@??@@??@@@?@?@@???????@A?A?A@A@A@A?A@C?A?A@A@A???A@?@?@@@@BB?B@B@@?D@@?@?@A@??A????????@??A??@???????@?@A@?@?@?@?@?@@@???@A@?@A@?@?@?@@@@B@B@B@@?@A??@A@A?A?A???????A??@C??@C?????A???AD?HHLAARJNSLYDSEC?EKYBe@EIACF[JQC?HSFq@BIJI?",
          "_yQ}~zAA??AC?A??AA?AA??AA?A?A?ABOACAACEIG??GGCAGC??CA??EC???AAA???A?C??@A@A???A@?@A@?@???@?B?@?D@@@F@?@LD??@@@???@?@?????@??A???A?AAE?????A?A?A?AA??A@A???A@A??BC??@A?A?A??CC??AC???A?A?A@ABG??@A@A??BA@AB???@?@?@?@?B@@????@@@@??@???B?@CF?@???@?@B@@?@B??????@@@@@?@?@???B?@???@?GJQ@KEGH?XQJX^UN"
        ]
      }
    },
    {
      "id": "AT-08-05",
      "type": "Feature",
      "properties": {
        "id": "AT-08-05",
        "start_date": "2022-10-01",
        "elevation": "low"
      },
      "geometry": {
        "type": "MultiPolygon",
        "coordinates": [
          "}aRkc{A@ALAFAVCNAHAD?@?DCB?BABAHEHEDAHCHALAHCNCHENIDCDEHEJGHCFCFAD?H?H?FAJAB?BABDDFBFDFDBDDHBJ@??VZ?\\NJ[Ac@NINA?G?A?A?AAAA??ACEA?A?A???ABG?E???AA?ACA?CAA?C?A?A?C@C@CBCFA@?@?@?@??@BBB???@?@A@??CB??A@?@AB@F??@D?B??A@????A?A???A?AAMEIEEAA?E???A?A?A@A@A@A@???D@BBB@?B@FBB@FFHFBD@@@BCP?@?@@@@@@@D?@@CBAR@N@@DB?B@@???B?B?@A@E@?@A?A?AACEAACACAA?EAC?C?E?C?C@C@A@?@A?A@A?C?A?EACAAA?A?A?C@A@C@?BADC@A@??A?A???A?E?C?A?AA???GACAAA??A??A?A??@A@?FAB?@?@A???A?AACACACAACC?ACAAC?CAC???AA?A?AAA?A?C@ABCBA?A@AAAAAA?CAC?CA??AA?A@C?A?A?A??A?A?A?AAAA?CAACA?AACAC?A?A?A?A?E@A?AAA?AA???A?A?A?A?A?AAAA?AAA?A@A??@A@?@CBAB???@???@B@B@@@@@@B@@?B???@@@@BBBB@LBHBDB@@@@???@A@A?A?C?E???GAG?G?E?E?A@?@A@?@@B?@??@@@?H@@???D@@@@@@@B@BB@?B@B@@@@@???@?B?B?@A??@?@C@A?A?CAAAEAAACCCACA??C?E?A?E?A@A?A@?B?@?@?@BBBD@B@B?@?@A?A@A?I?I?I@C?G@CBA@AB?@A@A?A@A?C???FONIJABMAe@UW{@_@GSo@WEGFCNINIBAHC??NE"
        ]
      }
    },
    {
      "id": "AT-08-05",
      "type": "Feature",
      "properties": {
        "id": "AT-08-05",
        "start_date": "2022-10-01",
        "elevation": "high"
      },
      "geometry": {
        "type": "MultiPolygon",
        "coordinates": [
          "_yQ}~zAAAE?AAAAAA?A?ABQACAACEIGGGCAGCCAA?CCAC?E??@A@A@A@A@?@???D?@?D@HDLD@@@???@?@?????@A???CAE??AG@C?A@A??BC??@A?A?A??CCAC???A?A?A@ABGBCBABA@?@?B?@?B@@?@B@??@???DCF?@???@?@D@@B??@@@@@?@?F?@?GJQ@KEGH?XQJX^UN",
          "y`Rk|zA??B?@?@A@?@A?A@C@ABCFAB?HAH?H?@?@A@??A?AACACCECC?A?A?A?C@A@?@AD?@?D?B???B@B@BB@@D@@@B@@?@?BA?A?A@??A?C?C?A??AAAACACAA?CCCAAAAAAAEA??A?IAA?AA???AAC?A@A?A@AD?D?F?F?F@??D?B?@?@?@A?A??AAAAECICMCCACCACAA?A???CAAACAAAACACA?A???A??@CBC?A@A?A@?@A@?@@@?@@?@?@?@?@?@?@??@@@?@@@?DA@?@?@?@?B?B@@@@?@BB@@?@@?@?@?@?@@?@?@?B?@A@??@@??B@B?B@@@@@@@A@?BC@CBA@?@?@@@?@??@??@B?B@BB@?@BB@@@B@B@B?@?@??A@A?C?G@A?A@???@?@@???@@B@F@??@??@?@?B?D?@???@?@A?A@EBC@A?ABA@?B?@?@@@B@D@@?B?@?@A@??A@ABABAB?D?B?B?D@@?B@B@@@BD@@@?@??ADA@A?A?C?C??AA?CECAAR?HHLAARJNSLYDSEC?EKYBe@EIACF[JQC?HSFq@BIJI?GO@ICU?A"
        ]
      }
    },
    {
      "id": "AT-08-05-01",
      "type": "Feature",
      "properties": {
        "id": "AT-08-05-01",
        "start_date": "2021-10-01",
        "end_date": "2022-10-01",
        "elevation": "low"
      },
      "geometry": {
        "type": "MultiPolygon",
        "coordinates": [
          "caRg|zA?C@A????@I??@G??BG@ADEFE@C@C@CACAAACCCAAGAAAAA?A?A?E@C@C?A?AAAA?AACACAA?AAC?C@A?E?A@C@?@AB?@A@??A@A@?@E?A@A?A?AAA??C???A?A?A???A@??A??@A@??A?A?AAAAA?C?AAAAA?A?C??AA?A?A?A???A???AA?????A?A?A???A@???BABADA@A?A@C?A?A?A?C@????A@??A@A?AAC?AAA?AA??AAA?A?A@A?C?A?AAAA??A?A?A?A@??ABA?C@C@C?A?A?A@A?A?A@??A@???@?@??@@@B@@@@B@BBDBFD@@@B?@?@??A?A@C?C@C???C@?@???@@?@@F@@@F?D@??B@F?B@B@FBDBD@NBB@?@?@A@??A??@???@?B?@?@A@ABA@?@??A@C?A?A?AAA?AA?????A@??A@A@??A@A??AA?AAA??C?A?A?A?C???CACAC?E?C?A?A@A??@?@???@C@A@A?A?A?AAAAAAC?A?A?A?A?A@??A@???@?@?B@@@@@??@DB????@@@@?@?@?@?@?@????BB@??BA?A@E?C?A?AAA???A@A?A@A@?@?@?@?@@?@@@@@?B?B?@?@@B@??BB@??@?@?@A@??AB??A@A?A@A?C?AAAAAAAACAA?EACCECEECAEEAAEACCEAC?C?CAE?A???A?E?C@A@A?A@?@?B@BA@ABA?A@A?E?C?EAECCECAC?C?C?C@C@?@???@?@???@@@??A@?@A@A@E@A@C@A@C@A?A@A@?@???@???@??@@@?BB@@@??@@??@?@A@?@AB?@A@?B?@?@??A@?@?@???@??B@B@B?@@@????@??A@?@A@???@?@@@@@@@@?@?B?F???D?@?@??@???@?@A??B???@??@@@@??@@?????@???@@@@@@@??@@?????@A?A@A?????A????@??????A@??@@?????@@@??????B???@????@@??????@?????@???@A@??A@???B??@D???D??@D???B?@?@A?AF??EH?@A???C@????A@??C?????CA??DSMMCc@w@y@Oa@MIDEHGDEDEBEBE@GDMBEFGFE@ADCRGPKRIPITIJEDCBC@E@I@E@CBCBC@C@A?E?CAE?A@CBADCF?D?DAB?DC??BA@ABCHILILGBCHDLDDDLFLD@DDLDBFBHDNFJDJBHLFJ@L?HCDBDCFEBMDEBEDCDGF?@C?"
        ]
      }
    },
    {
      "id": "AT-08-05-01",
      "type": "Feature",
      "properties": {
        "id": "AT-08-05-01",
        "start_date": "2021-10-01",
        "end_date": "2022-10-01",
        "elevation": "high"
      },
      "geometry": {
        "type": "MultiPolygon",
        "coordinates": [
          "o`RyzzA_AAQLuAb@s@Q]@GDRFCN_@HEVLDZl@OJBPGXq@RKAEO@E??B@????B???@A????BA??@??ADI??@G@??A?A?C??AE???E??AE???C??@A??@A?A???A?????A????A??A??A???C???????AA?A????AA??@A???????A??@?????@?@A@??A????AA??AAAAAA?A???A????AA??AAAA???A???C@??A?A???AA?A?E???G?C?A?A?AAAAAA?A?A??@A?A@A???A??A?AAC?CACA???A???A?A@A???A?A?C@A?A@C?A@A?A?AA??AA?AACCA?AA???A???A???A@A@A@?BA@ABA@ADA@A@A?A@A??AA?A???A?A???ABABAB?B?B?B@BDDBD@B?D?@?@A@?@C@AAC?C?A@A@?@ABAD?@???@?D?B@B?B?D@BBD@@@DDB@DDDBBBD@@?B@@@@@@@@@B?@?@A@?@A??@C??@A?A?A?AA?CC??CAAAA?C?C?A?AAAAA??A?A?A?A@A@A@?@A??@?@@@?B?D?@A@??CA?CC?????A?A?A?A?AAAAA????EC?AA?AAAA?C?A?A??@A??@A@?@?@?@?B?@@@@@@@?@?@?@ABA?A???A?A@?@A@?B?D?B?B@B@??B?@?@?@?B???@@?@@@??A@?@A?A@?@A??@????@@@?@@@?@?B?@A???A@A@C@A?A?A?C?A???A@???@A?A?ACAOCEAECGCCACAG?CA??EAG?AAGAAAA??A???ABA??B?BAB?@A@????A?AACAAGEECCCCAAAAAACAA???A?A??@A??@A@?@?@A@?@?B?BABA@?@C??@A@?@?@???@@@@@?B?@?@A@?@?@@??@@@?@@B?@@@?@A??@A????BA@?@?@?B?@A@?@A@E@C?C??@A??@?@?@?????@??@???@???@?@?@@@???B?@@@@@?@?B@@@@?@?@?@A?A@???@A??@???@?@?@???B@?@@@?@?@AD??A@A@A??@A?A@C?ABA@AD?@?BAB?@@@?B@B@@@@?@@?@?@ABAB?D?@?@@@@@F@@@BB@B@@@BABABABGDEDA@CF??AF??AH????A@?B?B?B?@?B??@@?@@@@@@@@@@??B?@@BBB@@?B"
        ]
      }
    },
    {
      "id": "AT-08-05-02",
      "type": "Feature",
      "properties": {
        "id": "AT-08-05-02",
        "start_date": "2021-10-01",
        "end_date": "2022-10-01",
        "elevation": "low"
      },
      "geometry": {
        "type": "MultiPolygon",
        "coordinates": [
          "edReb{AHENINIBAHC??NE@ALAFAVCNAHAD?@?DCB?BABAHEHEDAHCHALAHCNCHENIDCDEHEJGHCFCFAD?H?H?FAJAB?BABDDFBFDFDBDDHBJ@??VZ?\\NJ[Ac@NINA???A?C???A?A?A?AAAA??????ACA?CA?A?A???ABG?A?C???AA?AA?A??A?CAA?A?A?A???C?A@C@??A@A@??CFA@?@?@?@??@B??BB???@?@A@??CB??A@?@??A@?@@??@?@?@?@????@D?@?@???@A?????A?A???A?AA??ME?AGAAAEAA?C?A???A?A?A@A??@??A@A@???B?@??@@?@??DB??B@??FBB@FF??HFBD@@@BCN?@?@?@@@??@@@??@@?B??@@?CBAR@NL??@???@????AB??AB???@???????@?@A@A@??A@A?CACACAAAAAA?A?A?A@A?A@??A?AAA?A?A?A?A?A@A???????A????@A??????????@A?A@A?A?EAA?CACAC?ACAA?A?A@A??@?@A@A@?B?@A@?@A@A@A@?@??A??????AAA?A?AA??AA??@A???A@??A???A?A@??AA???AAC?A?CA??EAA??A??A?@A??@?@AD?B?@?D@@?B???@A????AAACAAAA?A?A?AAAAA??CAACCACAAAAA?A???A?A?A?A??CAA?A?C??@C?C@A@??AAA?AAAC?A?C?AA???A?C@C@A@A??A???C?C@C@A??A?AA??A?A@EBA???A??A??@C?A?AAAA?A?E@C@C?CAC?A?AAA?AA???A??@??A??@A??????AA???????A??A?A?????C???????A???A@????A????@?@??A@???@?@A??????@A??????@????@??????@@?D@@?@@?@@@@????@???@???B??@@????@B??@@??D@??JD??HB??FB??@@@@?@?@A@A?A?C?E?EACAC?C?E?EAE?C?A@A?C@A?A@???@??@??@B?@@??@@?????@@??@???@@?D?D@B?B???@@@@@??@???@???@@?B@D@@?D?@@@??@?@???@????A@?@?@?@@@?@??A@A??@C?A?A?A?GCCCCACAAAAAA?C?C?A@C?A?A?A@C@??A@???@?@@@??@@@@@@@@?@?@?@?@?@A@?@A@A???A@A?I?G?E?C@A@CDAB@B?B@??@?@@@@@?@??@@?@@?@?@@B@@@??@@???@??A@??A@A?C@E?C?A@C?CAA?A?AA??A?AAAAAAAA?AAA???C?A?C?CB??AFGBEDEDCLEDCBGCEBE?IAMGKIMKCKEOGIEGCECEMAEMEMGEEMEIE"
        ]
      }
    },
    {
      "id": "AT-08-05-02",
      "type": "Feature",
      "properties": {
        "id": "AT-08-05-02",
        "start_date": "2021-10-01",
        "end_date": "2022-10-01",
        "elevation": "high"
      },
      "geometry": {
        "type": "MultiPolygon",
        "coordinates": [
          "w`Rm{zA??@@@?@?B@B?@AB?D?BA@?@A??@A???A??AA??AACAAAA?A??AAA???AAAAA?A?AA??CAC@CBE@ABAD?F?H?@?@A??@?@A?A@A?A?A?A?A?AAAAAAAAA??AA?A?A??@A??BA@A@?@?B?@AB?B?@?@@@@B@B@BBFB@?@?@?B??A@?@A???AAA?A?A?A@A?????A???A?AA?AAE?A?EACAA??A???A???AA?AAAA??C?C?EAE?A??A???AA??A????AA??AAC??AA????A??@A@?BA@?@AB?D?D@D?B?B?B@D@D?B?@?@?@A?A?AAAAA??GC??IC??KE??EA??AA??AC????AA???C???A???A??A?AA?AAAA?EAA??A????A??????A????@??A????@??A?A??@A???A?A??@?????@A??@???????B?????@?@????@??????@@??????A@???@A????@??@@@?@@@?B?B@B?BADA@?@?@@?@?@AB???@@???@?DC@A@???@@@???A@AB?B?B???@@?@ABABA@???@??@?B?@@B@@@?@@??@ABAB??AB?@?@?B@???@?@?@?@???@@@@@B@B@@BB@??@@@@?@?@?@@@@@@B@@????A@??C?A?EAA?C?E?A@A???A@@????@@?D@??B@@?B?@@??@??@A??@?@???@A??@??A@??@@??@@@?@?@@???????@A?A?A@A@A@A?A@C?A?A@A@A???A@?@?@@@@BB?B@B@@?D@@?@?@A@??A????????@??A??@???????@?@A@?@?@?@?@?@@@???@A@?@A@?@?@?@@@@B@B@B@@?@A??@A@A?A?A???????A??@C??@C?????A???AD?HHLAARJNSLYDSEC?EKYBe@EIACF[JQC?HSFq@BIJI??CAACCAC?A?C",
          "_yQ}~zAA??AC?A??AA?AA??AA?A?A?ABOACAACEIG??GGCAGC??CA??EC???AAA???A?C??@A@A???A@?@A@?@???@?B?@?D@@@F@?@LD??@@@???@?@?????@??A???A?AAE?????A?A?A?AA??A@A???A@A??BC??@A?A?A??CC??AC???A?A?A@ABG??@A@A??BA@AB???@?@?@?@?B@@????@@@@??@???B?@CF?@???@?@B@@?@B??????@@@@@?@?@???B?@???@?GJQ@KEGH?XQJX^UN"
        ]
      }
    },
    {
      "id": "AT-08-06",
      "type": "Feature",
      "properties": {
        "id": "AT-08-06",
        "end_date": "2022-10-01",
        "elevation": "low"
      },
      "geometry": {
        "type": "MultiPolygon",
        "coordinates": [
          "stRivzAB?BA@?HAPCLEJEJGHEHG??DGDCHEHELILKDCBCFEFAJAFAD?DCDA@A??LHN`@v@x@Bb@LLER????A??????AA??????C???G???C??AC??CE??CC??CA??EA????E???C?????A?A@????A@???@C?A@C@A?C?C@A@A??@?@A@?@??CBA?A?A??@A?A???????AA??A???A??A??@A@C@ABCBABC@AFCBCBCBADCBA@ABA@A????????@C???A??AA???A????AA??A??AAAAAA?A??AA???A?A???CA??A?AAA???A?A?A?A@??AAA?A??AAAAAA?A?C??AA??????C???A???A???A???A???A????A???AA??A???????AA???????A???C??A?@C?E?AACAA????CAA@A?A@CBCBABCBABAB?@ABA@CBAB?@A@A?A???A?AA?AAA?AAA?A???A@A???A????AA????????A?????A???A?????A?????A@??A??@CD??CD???@EB??CB????A@??AB???B??@B??@D??@B@F@B?@@B?@?@?@?B?@AB?@?B?@A???A???A?AAECAACACCAC?AAC?A?AACCCAAAA?AA?A?A?A?C?C@C@E@A@A@?@?BA@A?C?G?A?A?A?C?A?A@C?A@E@A?A@AB?@?@?@?@@B@@@D@BB@@BDF@B?@?@ABA@CBIDC@G@C?A?C?C?C?C?C?A?A?A?AAA????A?A@??A@?B?D?HAD?BA@A@?@A???A?AACCCCAEGECECCC??AAAACE?CACACAAC?AAC@A?C@A?A?A??A?C@A@C?A@C?AAAAA??AAA?G?A?C?C?C@C?E?G@E?E?E@SA??C?????AOEIB?B?B?D@LFt@@RJV@@A"
        ]
      }
    },
    {
      "id": "AT-08-06",
      "type": "Feature",
      "properties": {
        "id": "AT-08-06",
        "end_date": "2022-10-01",
        "elevation": "high"
      },
      "geometry": {
        "type": "MultiPolygon",
        "coordinates": [
          "oxRgvzA????B???R@DAD?D?FAD?B?BAB?B?@?F?@?@@??@@@@?@AB?@ABA@?B?@@?@?@?BA@?BA@@B?@@@B@B?BBD@@@@??BBDBDBDFB@BB@B?@?@??A@A?A@C@E?I@E?C?A??@A??@?@??@?@@@?@?@?B?B?B?B?B?@?B?FABAHEBC@A@C?A?AACEGACCAACAEAAAC?A?A?A?A@C@A@?DA@AB?@A@?B?@?@?@?F?B?@?@A?C?A@A@ADABABAB?@?@?@?@??@@@@@BB@B?@?@@B?@@BBBB@@@DB@@@???@???@??A?C?A@C?A?C?A?A?AAC?AACAGAC??AE??AC???C??@C??@A????BC??DC?A??BE??BE?A@???@A????@?????@???@?????@?????????@@?????@??A@?@???@@@?@@@?@@@@???@?@?@A?A@CBC@A@C?A@C@CBC@CBCBC@A@?@AB@????@@@B?@?DAB@????B???@??????@@??????@???@@??@??????@???@???@???@???@???B????@??@B?@?@?@@@@?@@?@?@@??@A@?@?@???@?@@@???B@??@?@???@??@@?@?@@@@?@@???@@?????@??@@???@??AB????????A@C@A@C@EBC@CBCBGBA@CBC@CBA@ABA@???@@???@???@@??????@?@??A@?@?@?BC???A@A?A?A@?@ABAB?@?BA@AB??A??@A????@A@?????B???D?????D@??B@??BB??BD??@B???B???F???B????@??@????@?????ADDNUN_@Hg@EOFUGGPOH_@DWE[Zg@T@VGDW?g@@GBANYR[EGGa@@IGJa@CMh@OVYAWRS@O[UWGU[AQ"
        ]
      }
    },
    {
      "id": "AT-08-06",
      "type": "Feature",
      "properties": {
        "id": "AT-08-06",
        "start_date": "2022-10-01",
        "elevation": "low"
      },
      "geometry": {
        "type": "MultiPolygon",
        "coordinates": [
          "wxRawzAB?B?B?D@LFt@@RJV@@AB?BA@?HAPCLEJEJGHEHG??DGDCHEHELILKDCBCFEFAJAFAD?DCDA@A??LHN`@v@x@Bb@LLER??A???AA?C?G?CACCECCCAEAE?C?C@A@?@C?A@C@A?G@A@A??@AD??EBC?C@AAA?AA??@A@C@AFEBCFEHGBADCDCBA@A?A?AACCCACCAAAA?CAC?A?C?C?C?AAECEA??AAAA???AAA?C?A?A?AAAAAAA?A?C?GACAA????CAA?A@A@CBCBABEFADCDCBADA@A?A?A?AAAC?AAA?A@C?AAAA?A?A?A?CBCDCDEDCBA@AB?B@B@D@BBL@B?B?@?B?@AB?@?B?@A???A?A?AAGECACCAC?AAC?A?AACCCCCAAA?C?C?GBE@A@A@?DA@A?C?G?A?A?E?A?A@E@E@A?A@AD?@?@?@@BBF@BB@@BDF@B?BABA@MHC@G@C?A?G?C?G?A?A?A?AAA??C@??A@?B?D?HAD?BA@A@?@A?A?CAACCCAKKECCCAAAACE?CACACAAC?AAC@E@A?A?A??A?CBE@E?AAAAAAAI?A?C?G@C?E?M@K@SAC?AOEI"
        ]
      }
    },
    {
      "id": "AT-08-06",
      "type": "Feature",
      "properties": {
        "id": "AT-08-06",
        "start_date": "2022-10-01",
        "elevation": "high"
      },
      "geometry": {
        "type": "MultiPolygon",
        "coordinates": [
          "oxRgvzAB?R@JALAD?B?FAB?@?H?@@@@@@?@ADCD?B?@@?@?@?DABA@@B?@@@B@B?BBD@@@@BBDBJJB@BB@@?B?@A@A?A@C@E?I@E?C?A??@A??B@?@@@?@?@?F?B?F?@?B?FABALI@A@C?CACEGACCAACCGAC?A?A?A@E@A@?DADA@A@?D?@?@?F?B?@?@A?E@A@ADAFCB?B?@?@@BBBB@B?@?@@B?@@BBBB@FD@@@?@???@??A?C?A@C?A?C?A?CACCMACAEAC?C@C@ABCDEBEBEBC@?@?@?@?@@?@AB?@@@?@@B@@@?@?@?@A@EBCBE@EDG@CBCBC@A@A@?B@????@@@B?F?B?@@@@@@@?@?@?@?B@@?@??@@@@??D@DB@@B?B?B?@?B?B@@?@@B@@BBB@B?@?@A@C@EBEBC@IFGDCBGDA@ABA@??@@@?@@BAB?DC??@E?A@?@AFA@?BA@AB??A@ABAB?D?D@B@BBBD@B?B?F?B@@??@???ADDNUN_@Hg@EOFUGGPOH_@DWE[Zg@T@VGDW?g@@GBANYR[EGGa@@IGJa@CMh@OVYAWRS@O[UWGU[AQ"
        ]
      }
    },
    {
      "id": "AT-08-07",
      "type": "Feature",
      "properties": {
        "id": "AT-08-07",
        "start_date": "2022-10-01",
        "elevation": "low"
      },
      "geometry": {
        "type": "MultiPolygon",
        "coordinates": [
          "c}Roh{A@?D?B?F@LBF@JDDBBBPRLLJJJLLHJFKPa@^GVCf@JVs@A_@@C???@??CFAF?BAB?D?@?BAF?BAB?BA@???@A@A@C@C?C@??E?C?AAEAG?C?E?C?C?E?A@C@ABCDA@A@A@CBCBC@ABC@C@A@C?A???AAAAAAAACCCAAAA?AA???AAC@A?A?A?A??AAA?A@A?ABA?A?A?A??CCAEACACA?CACAAAACCCCECCCECAACCAA?E?CA??C?G?E?E?C?A@A?C?A@I?EC?A??@C@?@ADAF?DA"
        ]
      }
    },
    {
      "id": "AT-08-07",
      "type": "Feature",
      "properties": {
        "id": "AT-08-07",
        "start_date": "2022-10-01",
        "elevation": "high"
      },
      "geometry": {
        "type": "MultiPolygon",
        "coordinates": [
          "m}R_h{A@AB?@?@AB?D?D?F?B???B@D?@?B@@BB@BDBBBDBB@B@@B@B@@?@B@B@DBB???@?@?@C@?@A@?@@@?@@?@?@?@?BA@@??@??@@@@@BB@B@@@@@@?@???@ABA@ABCBA@CBCBABA@A@E@CBA@AB?@?D?B?B?D?B@F@D?@?B?DA??BABABA@A@??A?C@C?C@G?C@A?E?C?C@G?G@?EWCMIGGXIJGIQNILa@]U?ACA@_@FE?ACCDE?A??RGCCUSG?"
        ]
      }
    },
    {
      "id": "AT-08-08",
      "type": "Feature",
      "properties": {
        "id": "AT-08-08",
        "start_date": "2022-10-01",
        "elevation": "low"
      },
      "geometry": {
        "type": "MultiPolygon",
        "coordinates": [
          "idRab{ADEDFn@VFRz@^TV@d@CLK@OHGNA??AA??A?C?C@CBGDEBC@C@C???E?E@CAA?A?AAA??CCEAAAA?AAC?ACAC?C?CAA?AAAAAAAC?A?C?A@A@A@?BABA@A?GBE@A?CAA?AA?A?A?A@C?A??@A?A@C?A?A?AAA?CAACACCA?A???C?A@CBA?C@G@C?C?C?A?CAA??AA?E?E?G???C?A?A@C@CBA@A@?@@@?@BBDDFBBB?@BB@B@B@@A@??A@C?G?E?C????@A?@@?@@@B@??D@H@F@D@??F?F@F@FBJDB@@??@@@A@?@A@A@CBABCBCDC@A???A?AAA????C?A?C??@C?A?AAACAAAE?I?M?A?A@A??@ABC@A?A?A?CA??CAA?A?CAE@A?C@A@ABA@?@?@???@@?DBB@D@@@?@@B?B?B?@A@?@?@AB?@A@@@?@@@?@@@D@B@@@?@@@A@?@ABC@A?C?A???CC??CACCC?CACAA?CCCCEEECCCCACCEAC?GAI?E?C@A@A?A@?@@FA@ABA?C@E?C?EAECCECAC?C?C?C@C@?@?@?@?@@@A@?@A@A@E@EBEBA?A@A@?@?B@@@?BBB@?@@??BA@AFAD??AF?@???@??B@B@B?@@@????@CD???@?@@@BB@?@?B?F?@???B??@@@?@???B@@@B@D??@@@@?@?@?@A@A??@A@@@@BB?@?@@?@???@ABA@?B@J@D?DA@AFEHA@C@A@C?CADSMMCc@w@y@Oa@MIDEHGDEDEBEBE@GDMBEFGFE@ADCRGPKRIPITIJEDCBC@E@I@E@CBCBC@C@A?E?CAE?A@CBADCF?D?DAB?DC??BA@ABCHILILG"
        ]
      }
    },
    {
      "id": "AT-08-08",
      "type": "Feature",
      "properties": {
        "id": "AT-08-08",
        "start_date": "2022-10-01",
        "elevation": "high"
      },
      "geometry": {
        "type": "MultiPolygon",
        "coordinates": [
          "sjRqtzAB@B?@ABA@ADI@G@A?EAEAK?C@A@C?A???AAAA?C?ACAA@A?A@?@A?A?A?AAAAA??AEACAA?C???AAA?AC???A?G?C?A?A?CCAA?A?A??BE?A??A?AAC?CACA???A???A@G??@E@G@A?CA??ACACCA?AA?C?A@A@A@?DCDCDA@A@A?A@AAA?A?A?A?ABABAB?B?B?B@BDDBD@B?D?BA@?@C@AAG?A@A@?@ABAD?H?F@B?D@BBB@BBDBDDBBBB@?B@B@B?BBB@??BB??@?B?@?BA@C?A@AAA?AAACAEAAA?AAA?AAA@A?A@C?A?A@A?A?C?CAC?AAAEACAECA??A???A?A@A@C@ABA@?DAB@@?@?B@??B@@?@?@?BA@C?A@?@A@?L?H?D?@@B@@@?@?@AB???B?@?B??@?@@@???@?BABEBC@CBC@A@A?A@AAA?AA?CAKEGCGAGAG???EAGAIAEA??CAAA?AAA@??A??B?D?F?B?@A??@AAAACACCC?ACCGCEECC?AAA?A@A@ABCBA@A@?B???F?D?D?@??@@?B@@?B?B?B?FABA@?BC@AB???@?@?BBB@@@?B@@?@?@?@AB?@A@???@AB?@?@?@@@@?B@@?DAFC@?@A@C?C@A@A@AB?@?B?@@@@@@?@@@?B?B@B@BB?@@@?@@D@BB??@@?@?@@@AB?D?D??ABABCBEDCFAB?B?B?@@??@@??@BTAHFN_AAQLuAb@s@Q]@GDRFCN_@HEVLDZl@OJBPGXq@RKAEO@E"
        ]
      }
    },
    {
      "id": "AT-08-09",
      "type": "Feature",
      "properties": {
        "id": "AT-08-09",
        "start_date": "2022-10-01",
        "elevation": "low"
      },
      "geometry": {
        "type": "MultiPolygon",
        "coordinates": [
          "_nRoy{A@MEMBGPDBH^?b@NNCNUr@IHFCFDT`@INOf@ERKKQHUMOLQh@OPBZCh@`@?JNB@\\H@JN@@CJ@F@B??ABABA?CBA?MFA@A@CDABA@@@@@B??@JBF@J@D?D?VAF?F?D@F@B@@@@D??@@@?FB@?@@DDB@D@@?@???@ABC@A@?@?B?@?B@B@@@@B@@B@B@B?B?HADA@A@A@C@C?ACE?C?A?A@?@A@?D@D@@@@BDBDDFBD@F@F@F@H@H?J?HADABABAHGDAFADAD?@?CLe@V[d@M?EM_@X{@BOHJFJHBB@B?D?FAFEJAHAH?FML]N?LDJMFWVADWBIDGHOCGAA?ODK?SBO?GEGEMIA?EAKACAKGCCM@WBWGQ?OKBKOGK?EGDC@A?C?E?EAACCAACAGAE?G?C?E?AAC?CCCAAEAE?C?C?E?AAACCCACACAAA?A?A@C?ABA?A?C?A?C?Aa@Da@?SMa@GW@SL_@J_@F[@INKJ]Cq@TKKg@EQWTWB_@DCb@FHOTEJc@@?B?D?B?@?B???BA@?@@B?@?@?@A??`@FVAT]MIx@g@CC?E\n{uRis{A?@@@@@B@@?@AB?BA@A@?@?@?D@@?BA@?@A?A?A?AAAAA?A?A?A@C?A?A?A??AAA?C?A?C?CBA@ABABA@CBA?C@C@A@?@??"
        ]
      }
    },
    {
      "id": "AT-08-09",
      "type": "Feature",
      "properties": {
        "id": "AT-08-09",
        "start_date": "2022-10-01",
        "elevation": "high"
      },
      "geometry": {
        "type": "MultiPolygon",
        "coordinates": [
          "_sRyv{A@AREPD??A@A?A?C?AAA?C@??C?A?C?E?C?A?",
          "{uRis{A???A@ABABA@?BC@A@C@C@ABCB?@?B?@?@@???@?@?@AB?@?@?@@@@@?@?@?@A@A?C@A?EAA?A?A?A@C@C?A@A?CAAAAA?A"
        ]
      }
    }
  ]
}
