[
  {
    "id": "AT-07-01"
  },
  {
    "id": "AT-07-02",
    "end_date": "2022-10-01"
  },
  {
    "id": "AT-07-02-01",
    "start_date": "2022-10-01"
  },
  {
    "id": "AT-07-02-02",
    "start_date": "2022-10-01"
  },
  {
    "id": "AT-07-03"
  },
  {
    "id": "AT-07-04",
    "end_date": "2022-10-01"
  },
  {
    "id": "AT-07-04-01",
    "start_date": "2022-10-01"
  },
  {
    "id": "AT-07-04-02",
    "start_date": "2022-10-01"
  },
  {
    "id": "AT-07-05"
  },
  {
    "id": "AT-07-06"
  },
  {
    "id": "AT-07-07"
  },
  {
    "id": "AT-07-08"
  },
  {
    "id": "AT-07-09"
  },
  {
    "id": "AT-07-10"
  },
  {
    "id": "AT-07-11"
  },
  {
    "id": "AT-07-12"
  },
  {
    "id": "AT-07-13"
  },
  {
    "id": "AT-07-14",
    "end_date": "2022-10-01"
  },
  {
    "id": "AT-07-14-01",
    "start_date": "2022-10-01"
  },
  {
    "id": "AT-07-14-02",
    "start_date": "2022-10-01"
  },
  {
    "id": "AT-07-14-03",
    "start_date": "2022-10-01"
  },
  {
    "id": "AT-07-14-04",
    "start_date": "2022-10-01"
  },
  {
    "id": "AT-07-14-05",
    "start_date": "2022-10-01"
  },
  {
    "id": "AT-07-15"
  },
  {
    "id": "AT-07-16"
  },
  {
    "id": "AT-07-17",
    "end_date": "2022-10-01"
  },
  {
    "id": "AT-07-17-01",
    "start_date": "2022-10-01"
  },
  {
    "id": "AT-07-17-02",
    "start_date": "2022-10-01"
  },
  {
    "id": "AT-07-18"
  },
  {
    "id": "AT-07-19"
  },
  {
    "id": "AT-07-20"
  },
  {
    "id": "AT-07-21"
  },
  {
    "id": "AT-07-22"
  },
  {
    "id": "AT-07-23"
  },
  {
    "id": "AT-07-24",
    "start_date": "2022-10-01"
  },
  {
    "id": "AT-07-24",
    "end_date": "2022-10-01"
  },
  {
    "id": "AT-07-25",
    "start_date": "2022-10-01"
  },
  {
    "id": "AT-07-25",
    "end_date": "2022-10-01"
  },
  {
    "id": "AT-07-26"
  },
  {
    "id": "AT-07-27"
  },
  {
    "id": "AT-07-28"
  },
  {
    "id": "AT-07-29"
  },
  {
    "id": "IT-32-BZ-01",
    "end_date": "2022-10-01"
  },
  {
    "id": "IT-32-BZ-01-01",
    "start_date": "2022-10-01"
  },
  {
    "id": "IT-32-BZ-01-02",
    "start_date": "2022-10-01"
  },
  {
    "id": "IT-32-BZ-02",
    "end_date": "2022-10-01"
  },
  {
    "id": "IT-32-BZ-02-01",
    "start_date": "2022-10-01"
  },
  {
    "id": "IT-32-BZ-02-02",
    "start_date": "2022-10-01"
  },
  {
    "id": "IT-32-BZ-03",
    "end_date": "2022-10-01"
  },
  {
    "id": "IT-32-BZ-03",
    "start_date": "2022-10-01"
  },
  {
    "id": "IT-32-BZ-04",
    "end_date": "2022-10-01"
  },
  {
    "id": "IT-32-BZ-04-01",
    "start_date": "2022-10-01"
  },
  {
    "id": "IT-32-BZ-04-02",
    "start_date": "2022-10-01"
  },
  {
    "id": "IT-32-BZ-05",
    "end_date": "2022-10-01"
  },
  {
    "id": "IT-32-BZ-05-01",
    "start_date": "2022-10-01"
  },
  {
    "id": "IT-32-BZ-05-02",
    "start_date": "2022-10-01"
  },
  {
    "id": "IT-32-BZ-05-03",
    "start_date": "2022-10-01"
  },
  {
    "id": "IT-32-BZ-06"
  },
  {
    "id": "IT-32-BZ-07",
    "end_date": "2022-10-01"
  },
  {
    "id": "IT-32-BZ-07-01",
    "start_date": "2022-10-01"
  },
  {
    "id": "IT-32-BZ-07-02",
    "start_date": "2022-10-01"
  },
  {
    "id": "IT-32-BZ-08",
    "end_date": "2022-10-01"
  },
  {
    "id": "IT-32-BZ-08-01",
    "start_date": "2022-10-01"
  },
  {
    "id": "IT-32-BZ-08-02",
    "start_date": "2022-10-01"
  },
  {
    "id": "IT-32-BZ-08-03",
    "start_date": "2022-10-01"
  },
  {
    "id": "IT-32-BZ-09"
  },
  {
    "id": "IT-32-BZ-10"
  },
  {
    "id": "IT-32-BZ-11"
  },
  {
    "id": "IT-32-BZ-12"
  },
  {
    "id": "IT-32-BZ-13"
  },
  {
    "id": "IT-32-BZ-14"
  },
  {
    "id": "IT-32-BZ-15"
  },
  {
    "id": "IT-32-BZ-16"
  },
  {
    "id": "IT-32-BZ-17",
    "end_date": "2022-10-01"
  },
  {
    "id": "IT-32-BZ-17",
    "start_date": "2022-10-01"
  },
  {
    "id": "IT-32-BZ-18",
    "end_date": "2022-10-01"
  },
  {
    "id": "IT-32-BZ-18-01",
    "start_date": "2022-10-01"
  },
  {
    "id": "IT-32-BZ-18-02",
    "start_date": "2022-10-01"
  },
  {
    "id": "IT-32-BZ-19"
  },
  {
    "id": "IT-32-BZ-20"
  },
  {
    "id": "IT-32-TN-01"
  },
  {
    "id": "IT-32-TN-02"
  },
  {
    "id": "IT-32-TN-03"
  },
  {
    "id": "IT-32-TN-04"
  },
  {
    "id": "IT-32-TN-05"
  },
  {
    "id": "IT-32-TN-06"
  },
  {
    "id": "IT-32-TN-07"
  },
  {
    "id": "IT-32-TN-08"
  },
  {
    "id": "IT-32-TN-09"
  },
  {
    "id": "IT-32-TN-10"
  },
  {
    "id": "IT-32-TN-11"
  },
  {
    "id": "IT-32-TN-12"
  },
  {
    "id": "IT-32-TN-13"
  },
  {
    "id": "IT-32-TN-14"
  },
  {
    "id": "IT-32-TN-15"
  },
  {
    "id": "IT-32-TN-16"
  },
  {
    "id": "IT-32-TN-17"
  },
  {
    "id": "IT-32-TN-18"
  },
  {
    "id": "IT-32-TN-19"
  },
  {
    "id": "IT-32-TN-20"
  },
  {
    "id": "IT-32-TN-21"
  },
  {
    "id": "SK-01"
  },
  {
    "id": "SK-02"
  },
  {
    "id": "SK-03"
  },
  {
    "id": "SK-04"
  },
  {
    "id": "SK-05"
  },
  {
    "id": "SK-06"
  },
  {
    "id": "SK-07"
  },
  {
    "id": "SK-08"
  }
]
