<?xml version="1.0" encoding="UTF-8" standalone="no"?>
<!-- Created with Inkscape (http://www.inkscape.org/) -->

<svg
   width="55.654827mm"
   height="13.547487mm"
   viewBox="0 0 55.654827 13.547487"
   version="1.1"
   id="svg3335"
   xmlns="http://www.w3.org/2000/svg"
   xmlns:svg="http://www.w3.org/2000/svg">
  <defs
     id="defs3332">
    <clipPath
       id="clip-0">
      <path
         clip-rule="nonzero"
         d="m 417,271 h 17 v 19 h -17 z m 0,0"
         id="path657" />
    </clipPath>
    <clipPath
       id="clip-1">
      <path
         clip-rule="nonzero"
         d="m 425.49609,270.51562 h -12.125 c 0,0 -0.46875,4.45704 -0.46875,14.25782 0,9.79687 7.41407,14.7539 12.59375,17.25 5.1836,-2.4961 12.59766,-7.45313 12.59766,-17.25 0,-9.80078 -0.47266,-14.25782 -0.47266,-14.25782 z m 0,0"
         id="path660" />
    </clipPath>
    <clipPath
       id="clip-2">
      <path
         clip-rule="nonzero"
         d="m 414,289 h 23 v 14 h -23 z m 0,0"
         id="path663" />
    </clipPath>
    <clipPath
       id="clip-3">
      <path
         clip-rule="nonzero"
         d="m 425.49609,270.51562 h -12.125 c 0,0 -0.46875,4.45704 -0.46875,14.25782 0,9.79687 7.41407,14.7539 12.59375,17.25 5.1836,-2.4961 12.59766,-7.45313 12.59766,-17.25 0,-9.80078 -0.47266,-14.25782 -0.47266,-14.25782 z m 0,0"
         id="path666" />
    </clipPath>
  </defs>
  <g
     id="layer1"
     transform="translate(-64.250423,-86.871373)">
    <path
       fill-rule="nonzero"
       fill="#1e51a4"
       fill-opacity="1"
       d="m 78.398741,89.577838 v -1.781803 l -0.920528,1.781803 h -0.365181 l -0.894348,-1.751485 v 1.751485 h -0.4079 v -2.672016 h 0.442352 l 1.054199,2.137339 1.091406,-2.137339 h 0.407899 v 2.672016 z m 0,0"
       id="path1743"
       style="stroke-width:0.352778" />
    <path
       fill-rule="nonzero"
       fill="#1e51a4"
       fill-opacity="1"
       d="M 80.097863,89.577838 H 79.69134 v -2.672016 h 0.406523 z m 0,0"
       id="path1745"
       style="stroke-width:0.352778" />
    <path
       fill-rule="nonzero"
       fill="#1e51a4"
       fill-opacity="1"
       d="m 83.631151,86.905822 v 2.672016 h -0.329349 l -1.91134,-1.989885 v 1.989885 h -0.407899 v -2.672016 h 0.333484 l 1.907205,1.991264 v -1.991264 z m 0,0"
       id="path1747"
       style="stroke-width:0.352778" />
    <path
       fill-rule="nonzero"
       fill="#1e51a4"
       fill-opacity="1"
       d="m 84.923754,89.577838 h -0.407899 v -2.672016 h 0.407899 z m 0,0"
       id="path1749"
       style="stroke-width:0.352778" />
    <path
       fill-rule="nonzero"
       fill="#1e51a4"
       fill-opacity="1"
       d="m 85.762977,88.952208 c 0.119891,0.136426 0.38034,0.285256 0.595312,0.285256 0.248049,0 0.427193,-0.143316 0.427193,-0.38723 0,-0.463021 -1.114834,-0.398251 -1.114834,-1.21405 0,-0.475424 0.395499,-0.764811 0.782726,-0.764811 0.252183,0 0.442351,0.09095 0.54708,0.183278 v 0.520898 c -0.09508,-0.140561 -0.299032,-0.326595 -0.544322,-0.326595 -0.227379,0 -0.37345,0.151585 -0.37345,0.370692 0,0.498849 1.125858,0.413413 1.125858,1.214053 0,0.498849 -0.418923,0.790991 -0.86403,0.790991 -0.248049,0 -0.456131,-0.0937 -0.581533,-0.206703 z m 0,0"
       id="path1751"
       style="stroke-width:0.352778" />
    <path
       fill-rule="nonzero"
       fill="#1e51a4"
       fill-opacity="1"
       d="m 87.394574,86.905822 h 2.14974 v 0.38034 h -0.87092 v 2.291676 h -0.4079 v -2.291676 h -0.87092 z m 0,0"
       id="path1753"
       style="stroke-width:0.352778" />
    <path
       fill-rule="nonzero"
       fill="#1e51a4"
       fill-opacity="1"
       d="m 91.217253,89.577838 h -1.248502 v -2.672016 h 1.248502 v 0.38034 H 90.37665 v 0.764811 h 0.595313 v 0.377582 H 90.37665 v 0.771701 h 0.840603 z m 0,0"
       id="path1755"
       style="stroke-width:0.352778" />
    <path
       fill-rule="nonzero"
       fill="#1e51a4"
       fill-opacity="1"
       d="m 92.383074,88.201179 h 0.155716 c 0.354157,0 0.574643,-0.14745 0.574643,-0.46991 0,-0.31006 -0.213596,-0.445107 -0.563619,-0.445107 h -0.16674 z m 0.373447,0.356912 c -0.07442,0.0096 -0.151585,0.01655 -0.234266,0.01655 h -0.139181 v 1.003212 h -0.407899 v -2.672017 h 0.56086 c 0.615982,0 1.015615,0.250804 1.015615,0.832337 0,0.30868 -0.146074,0.537436 -0.38034,0.676617 l 1.058333,1.163063 h -0.576019 z m 0,0"
       id="path1757"
       style="stroke-width:0.352778" />
    <path
       fill-rule="nonzero"
       fill="#1e51a4"
       fill-opacity="1"
       d="m 94.422571,88.952208 c 0.119888,0.136426 0.380336,0.285256 0.595312,0.285256 0.248045,0 0.428569,-0.143316 0.428569,-0.38723 0,-0.463021 -1.11621,-0.398251 -1.11621,-1.21405 0,-0.475424 0.394119,-0.764811 0.782725,-0.764811 0.25218,0 0.442348,0.09095 0.547081,0.183278 v 0.520898 c -0.09508,-0.140561 -0.299036,-0.326595 -0.544326,-0.326595 -0.227375,0 -0.373447,0.151585 -0.373447,0.370692 0,0.498849 1.125855,0.413413 1.125855,1.214053 0,0.498849 -0.418923,0.790991 -0.86403,0.790991 -0.248045,0 -0.456128,-0.0937 -0.581529,-0.206703 z m 0,0"
       id="path1759"
       style="stroke-width:0.352778" />
    <path
       fill-rule="nonzero"
       fill="#1e51a4"
       fill-opacity="1"
       d="m 96.03763,86.905822 h 2.148363 v 0.38034 h -0.869544 v 2.291676 H 96.90855 v -2.291676 h -0.87092 z m 0,0"
       id="path1761"
       style="stroke-width:0.352778" />
    <path
       fill-rule="nonzero"
       fill="#1e51a4"
       fill-opacity="1"
       d="m 99.5158,89.107927 0.79926,-2.202105 h 0.43822 l -1.037667,2.672016 h -0.427189 l -0.966008,-2.672016 h 0.438217 z m 0,0"
       id="path1763"
       style="stroke-width:0.352778" />
    <path
       fill-rule="nonzero"
       fill="#1e51a4"
       fill-opacity="1"
       d="m 102.41657,89.251243 c 0.59807,-0.0096 0.96463,-0.465776 0.95498,-1.033529 -0.0138,-0.58153 -0.37758,-0.94809 -0.94258,-0.952225 -0.6904,0.0041 -0.94533,0.595313 -0.9412,0.989432 -0.01,0.458887 0.24529,0.989433 0.9288,0.996322 m 0.0124,-2.361956 c 0.78548,0.0055 1.34634,0.505739 1.36425,1.311892 0.0138,0.788236 -0.55121,1.413866 -1.38492,1.427646 -0.94809,-0.01101 -1.35599,-0.738629 -1.34635,-1.373904 -0.003,-0.551215 0.40928,-1.362879 1.36702,-1.365634"
       id="path1765"
       style="stroke-width:0.352778" />
    <path
       fill-rule="nonzero"
       fill="#1e51a4"
       fill-opacity="1"
       d="m 76.767144,95.099639 0.799264,-2.203485 h 0.438213 l -1.03766,2.672016 h -0.428572 l -0.966005,-2.672016 h 0.439597 z m 0,0"
       id="path1767"
       style="stroke-width:0.352778" />
    <path
       fill-rule="nonzero"
       fill="#1e51a4"
       fill-opacity="1"
       d="M 81.230612,92.896154 V 95.56817 H 80.901258 L 78.989919,93.579661 V 95.56817 H 78.58202 v -2.672016 h 0.333488 l 1.907204,1.991265 v -1.991265 z m 0,0"
       id="path1769"
       style="stroke-width:0.352778" />
    <path
       fill-rule="nonzero"
       fill="#1e51a4"
       fill-opacity="1"
       d="m 83.199828,92.773511 -0.217731,-0.208086 0.489204,-0.505739 0.227376,0.237021 z m -0.744143,0.122643 v 1.278819 c 0,0.54984 0.248049,1.074872 0.862651,1.074872 0.509877,0 0.859896,-0.405144 0.859896,-1.072117 v -1.281574 h 0.407899 v 1.278819 c 0,0.866786 -0.523652,1.444184 -1.267795,1.444184 -0.884699,0 -1.271926,-0.602202 -1.271926,-1.441429 v -1.281574 z m 0,0"
       id="path1771"
       style="stroke-width:0.352778" />
    <path
       fill-rule="nonzero"
       fill="#1e51a4"
       fill-opacity="1"
       d="m 85.028483,92.896154 h 2.14836 v 0.38034 h -0.869541 v 2.291676 h -0.407899 v -2.291676 h -0.87092 z m 0,0"
       id="path1773"
       style="stroke-width:0.352778" />
    <path
       fill-rule="nonzero"
       fill="#1e51a4"
       fill-opacity="1"
       d="m 88.16352,94.191512 h 0.15572 c 0.352778,0 0.57464,-0.146075 0.57464,-0.469911 0,-0.308681 -0.213597,-0.445107 -0.563616,-0.445107 H 88.16352 Z m 0.373447,0.356912 c -0.07441,0.0096 -0.152961,0.01655 -0.234265,0.01655 H 88.16352 v 1.003212 h -0.407899 v -2.672017 h 0.56086 c 0.615985,0 1.015616,0.250804 1.015616,0.832337 0,0.310057 -0.146071,0.537433 -0.380341,0.676617 l 1.056958,1.163063 h -0.574643 z m 0,0"
       id="path1775"
       style="stroke-width:0.352778" />
    <path
       fill-rule="nonzero"
       fill="#1e51a4"
       fill-opacity="1"
       d="m 90.865854,94.283841 h 0.632517 l -0.312812,-0.902618 z m 0.530543,-1.387687 0.989432,2.672016 h -0.438217 l -0.31557,-0.908127 h -0.898479 l -0.319705,0.908127 h -0.438217 l 1.022505,-2.672016 z m 0,0"
       id="path1777"
       style="stroke-width:0.352778" />
    <path
       fill-rule="nonzero"
       fill="#1e51a4"
       fill-opacity="1"
       d="m 75.766687,98.901645 c 0.119892,0.136426 0.380341,0.286632 0.595313,0.286632 0.248048,0 0.428572,-0.143316 0.428572,-0.388606 0,-0.461645 -1.11621,-0.398254 -1.11621,-1.212673 0,-0.476804 0.395495,-0.766191 0.782725,-0.766191 0.25218,0 0.442348,0.09233 0.548457,0.183278 v 0.520901 c -0.09646,-0.139185 -0.300411,-0.326598 -0.544326,-0.326598 -0.228751,0 -0.374826,0.152965 -0.374826,0.370695 0,0.500225 1.125859,0.41479 1.125859,1.21405 0,0.498849 -0.418924,0.792374 -0.864031,0.792374 -0.248045,0 -0.456131,-0.09509 -0.581533,-0.208086 z m 0,0"
       id="path1779"
       style="stroke-width:0.352778" />
    <path
       fill-rule="nonzero"
       fill="#1e51a4"
       fill-opacity="1"
       d="m 79.302734,99.527275 h -1.411111 v -2.672016 h 0.407899 v 2.294431 h 1.003212 z m 0,0"
       id="path1781"
       style="stroke-width:0.352778" />
    <path
       fill-rule="nonzero"
       fill="#1e51a4"
       fill-opacity="1"
       d="m 80.887479,99.202057 c 0.598067,-0.01101 0.966004,-0.465777 0.95498,-1.034906 -0.01242,-0.580153 -0.376206,-0.94809 -0.941201,-0.952225 -0.690396,0.0041 -0.945335,0.596692 -0.942576,0.990808 -0.0097,0.458887 0.24529,0.988053 0.928797,0.996323 m 0.01379,-2.363336 c 0.785481,0.0069 1.346345,0.505742 1.36288,1.311892 0.01379,0.78824 -0.549836,1.41387 -1.383549,1.427649 -0.949469,-0.0097 -1.355989,-0.737252 -1.346344,-1.372528 -0.0041,-0.551215 0.407899,-1.364255 1.367013,-1.367013"
       id="path1783"
       style="stroke-width:0.352778" />
    <path
       fill-rule="nonzero"
       fill="#1e51a4"
       fill-opacity="1"
       d="m 83.698677,99.058741 0.800639,-2.203482 h 0.438217 l -1.037664,2.672016 h -0.428568 l -0.966005,-2.672016 h 0.438214 z m 0,0"
       id="path1785"
       style="stroke-width:0.352778" />
    <path
       fill-rule="nonzero"
       fill="#1e51a4"
       fill-opacity="1"
       d="m 86.676618,99.527275 h -1.247125 v -2.672016 h 1.247125 v 0.380337 h -0.839226 v 0.766191 h 0.595312 v 0.376202 h -0.595312 v 0.771701 h 0.839226 z m 0,0"
       id="path1787"
       style="stroke-width:0.352778" />
    <path
       fill-rule="nonzero"
       fill="#1e51a4"
       fill-opacity="1"
       d="m 90.050056,96.855259 v 2.672016 h -0.329353 l -1.91134,-1.988509 v 1.988509 h -0.407899 v -2.672016 h 0.333488 l 1.907205,1.992644 v -1.992644 z m 0,0"
       id="path1789"
       style="stroke-width:0.352778" />
    <path
       fill-rule="nonzero"
       fill="#1e51a4"
       fill-opacity="1"
       d="m 90.821757,98.901645 c 0.119888,0.136426 0.380337,0.286632 0.595313,0.286632 0.248045,0 0.428568,-0.143316 0.428568,-0.388606 0,-0.461645 -1.11621,-0.398254 -1.11621,-1.212673 0,-0.476804 0.395496,-0.766191 0.782726,-0.766191 0.25218,0 0.442348,0.09233 0.547081,0.183278 v 0.520901 c -0.09508,-0.139185 -0.299036,-0.326598 -0.542947,-0.326598 -0.228755,0 -0.374826,0.152965 -0.374826,0.370695 0,0.500225 1.125855,0.41479 1.125855,1.21405 0,0.498849 -0.418924,0.792374 -0.86403,0.792374 -0.248045,0 -0.456131,-0.09509 -0.58153,-0.208086 z m 0,0"
       id="path1791"
       style="stroke-width:0.352778" />
    <path
       fill-rule="nonzero"
       fill="#1e51a4"
       fill-opacity="1"
       d="m 93.355968,96.855259 v 1.316027 l 1.165821,-1.316027 h 0.544326 l -1.237481,1.343586 1.226456,1.32843 H 94.503875 L 93.355968,98.25259 v 1.274685 h -0.407899 v -2.672016 z m 0,0"
       id="path1793"
       style="stroke-width:0.352778" />
    <path
       fill-rule="nonzero"
       fill="#1e51a4"
       fill-opacity="1"
       d="m 96.839649,99.527275 h -1.247126 v -2.672016 h 1.247126 v 0.380337 h -0.839227 v 0.766191 h 0.595313 v 0.376202 h -0.595313 v 0.771701 h 0.839227 z m 0,0"
       id="path1795"
       style="stroke-width:0.352778" />
    <path
       fill-rule="nonzero"
       fill="#1e51a4"
       fill-opacity="1"
       d="m 97.299914,100.11294 c 0.237021,-0.203949 0.352778,-0.490581 0.355533,-0.826824 v -2.430857 h 0.412034 v 2.428102 c 0,0.479559 -0.180523,0.866789 -0.507118,1.135499 z m 0,0"
       id="path1797"
       style="stroke-width:0.352778" />
    <path
       fill-rule="nonzero"
       fill="#1e51a4"
       fill-opacity="1"
       d="m 100.51625,98.150613 h 0.15572 c 0.35278,0 0.57465,-0.146071 0.57465,-0.468531 0,-0.31006 -0.21498,-0.446486 -0.565,-0.446486 h -0.16537 z m 0.37345,0.356912 c -0.0744,0.0097 -0.15296,0.01792 -0.23426,0.01792 h -0.13919 v 1.001836 h -0.4079 v -2.672016 h 0.55949 c 0.61598,0 1.01699,0.250804 1.01699,0.833713 0,0.30868 -0.14607,0.537435 -0.38034,0.675237 l 1.05696,1.163066 h -0.57464 z m 0,0"
       id="path1799"
       style="stroke-width:0.352778" />
    <path
       fill-rule="nonzero"
       fill="#1e51a4"
       fill-opacity="1"
       d="m 103.86489,99.527275 h -1.24851 v -2.672016 h 1.24851 v 0.380337 h -0.84061 v 0.766191 h 0.59532 v 0.376202 h -0.59532 v 0.771701 h 0.84061 z m 0,0"
       id="path1801"
       style="stroke-width:0.352778" />
    <path
       fill-rule="nonzero"
       fill="#1e51a4"
       fill-opacity="1"
       d="m 104.96181,98.150613 h 0.15709 c 0.35278,0 0.57465,-0.146071 0.57465,-0.468531 0,-0.31006 -0.2136,-0.446486 -0.565,-0.446486 h -0.16674 z m 0,0.374826 v 1.001836 h -0.4079 v -2.672016 h 0.56224 c 0.6146,0 1.01561,0.250804 1.01561,0.833712 0,0.540191 -0.45613,0.836468 -1.0294,0.836468 z m 0,0"
       id="path1803"
       style="stroke-width:0.352778" />
    <path
       fill-rule="nonzero"
       fill="#1e51a4"
       fill-opacity="1"
       d="m 107.01646,96.855259 v 1.278819 c 0,0.551216 0.24805,1.074868 0.86265,1.074868 0.50988,0 0.86127,-0.40514 0.86127,-1.072113 v -1.281574 h 0.4079 v 1.278819 c 0,0.866786 -0.52365,1.444184 -1.26917,1.444184 -0.8847,0 -1.27055,-0.600826 -1.27055,-1.441429 v -1.281574 z m 0,0"
       id="path1805"
       style="stroke-width:0.352778" />
    <path
       fill-rule="nonzero"
       fill="#1e51a4"
       fill-opacity="1"
       d="m 110.46707,98.338026 h -0.16399 v 0.811664 h 0.15021 c 0.42443,0 0.70004,-0.05374 0.70004,-0.396875 0,-0.344508 -0.29214,-0.414789 -0.68626,-0.414789 m -0.051,-0.377581 c 0.31695,0 0.49885,-0.108864 0.49885,-0.356913 0,-0.303166 -0.29765,-0.370692 -0.55397,-0.370692 h -0.0579 v 0.727605 z m -0.51952,1.56683 v -2.672016 h 0.38034 c 0.59807,0 1.05282,0.187413 1.05282,0.727604 0,0.264583 -0.14194,0.418924 -0.38998,0.493339 0.38447,0.07166 0.6394,0.278362 0.6394,0.669723 0,0.655948 -0.62976,0.78135 -1.17684,0.78135 z m 0,0"
       id="path1807"
       style="stroke-width:0.352778" />
    <path
       fill-rule="nonzero"
       fill="#1e51a4"
       fill-opacity="1"
       d="m 113.66963,99.527275 h -1.41111 v -2.672016 h 0.4079 v 2.294431 h 1.00321 z m 0,0"
       id="path1809"
       style="stroke-width:0.352778" />
    <path
       fill-rule="nonzero"
       fill="#1e51a4"
       fill-opacity="1"
       d="m 114.5433,99.527275 h -0.4079 v -2.672016 h 0.4079 z m 0,0"
       id="path1811"
       style="stroke-width:0.352778" />
    <path
       fill-rule="nonzero"
       fill="#1e51a4"
       fill-opacity="1"
       d="m 115.86898,96.855259 v 1.316027 l 1.1672,-1.316027 h 0.54294 l -1.23748,1.343586 1.22784,1.32843 h -0.55122 l -1.14928,-1.274685 v 1.274685 h -0.4079 v -2.672016 z m 0,0"
       id="path1813"
       style="stroke-width:0.352778" />
    <path
       fill-rule="nonzero"
       fill="#1e51a4"
       fill-opacity="1"
       d="m 119.00401,99.527275 h -0.4079 v -1.061092 l -0.88056,-1.610924 h 0.46991 l 0.63803,1.20716 0.61323,-1.20716 h 0.46853 l -0.90124,1.619193 z m 0,0"
       id="path1815"
       style="stroke-width:0.352778" />
    <path
       fill-rule="nonzero"
       fill="#d3d3d3"
       fill-opacity="1"
       d="m 85.07947,91.188766 h -9.272817 v -0.407899 h 9.272817 z m 0,0"
       id="path1817"
       style="stroke-width:0.352778" />
    <path
       fill-rule="nonzero"
       fill="#1e51a4"
       fill-opacity="1"
       d="m 94.348156,91.188766 h -9.272821 v -0.407899 h 9.272821 z m 0,0"
       id="path1819"
       style="stroke-width:0.352778" />
    <path
       fill-rule="nonzero"
       fill="#ed1c24"
       fill-opacity="1"
       d="m 103.61546,91.188766 h -9.272818 v -0.407899 h 9.272818 z m 0,0"
       id="path1821"
       style="stroke-width:0.352778" />
    <path
       fill-rule="nonzero"
       fill="#ed1c24"
       fill-opacity="1"
       d="m 68.693218,98.016945 c -1.827276,-0.880568 -4.442795,-2.627919 -4.442795,-6.085416 0,-3.457497 0.165364,-5.029842 0.165364,-5.029842 h 8.556241 c 0,0 0.165364,1.572345 0.165364,5.029842 0,3.457497 -2.615515,5.204848 -4.444174,6.085416"
       id="path1823"
       style="stroke-width:0.352778" />
    <g
       clip-path="url(#clip-0)"
       id="g1829"
       transform="matrix(0.35277777,0,0,0.35277777,-81.412344,-8.5302102)">
      <g
         clip-path="url(#clip-1)"
         id="g1827">
        <path
           fill-rule="nonzero"
           fill="#ffffff"
           fill-opacity="1"
           d="m 426.60547,282.20312 c 1.40234,0.0234 4.14062,0.0781 6.57812,-0.73828 0,0 -0.0625,0.875 -0.0625,1.88672 0,1.01953 0.0625,1.89063 0.0625,1.89063 -2.23437,-0.7461 -4.99609,-0.76563 -6.57812,-0.74219 v 5.41016 h -2.21485 V 284.5 c -1.58203,-0.0234 -4.34375,-0.004 -6.58203,0.74219 0,0 0.0664,-0.8711 0.0664,-1.89063 0,-1.01172 -0.0664,-1.88672 -0.0664,-1.88672 2.44141,0.81641 5.17969,0.76172 6.58203,0.73828 v -3.39843 c -1.27734,-0.0117 -3.125,0.0469 -5.20703,0.74609 0,0 0.0664,-0.87109 0.0664,-1.88672 0,-1.01953 -0.0664,-1.89062 -0.0664,-1.89062 2.07813,0.69531 3.92188,0.75781 5.19922,0.74609 -0.0664,-2.14844 -0.6914,-4.86719 -0.6914,-4.86719 0,0 1.28906,0.10157 1.80468,0.10157 0.51563,0 1.8086,-0.10157 1.8086,-0.10157 0,0 -0.62891,2.71875 -0.69141,4.86719 1.27734,0.0117 3.11719,-0.0508 5.19531,-0.74609 0,0 -0.0625,0.87109 -0.0625,1.89062 0,1.01563 0.0625,1.88672 0.0625,1.88672 -2.08203,-0.69922 -3.92578,-0.75781 -5.20312,-0.74609 v 3.39843"
           id="path1825" />
      </g>
    </g>
    <g
       clip-path="url(#clip-2)"
       id="g1835"
       transform="matrix(0.35277777,0,0,0.35277777,-81.412344,-8.5302102)">
      <g
         clip-path="url(#clip-3)"
         id="g1833">
        <path
           fill-rule="evenodd"
           fill="#1e51a4"
           fill-opacity="1"
           d="m 425.26953,305.23828 -10.73828,-9.57031 c 0,0 1.375,-4.44141 4.05469,-4.44141 2.125,0 2.90234,1.71485 2.90234,1.71485 0,0 1.39844,-3.61719 4.00781,-3.61719 2.61328,0 4.00782,3.61719 4.00782,3.61719 0,0 0.77734,-1.71485 2.91015,-1.71485 2.67578,0 4.04688,4.44141 4.04688,4.44141 l -11.19141,9.57031"
           id="path1831" />
      </g>
    </g>
  </g>
</svg>
