[
  { "url": "/bulletin" },
  {
    "key": "blog",
    "url": "https://blog.laviny.sk"
  },
  {
    "key": "meteoportal",
    "url": "https://meteo.hzs.sk"
  },
  { "url": "/education", "showSub": true },
  { "url": "/more", "showSub": true }
]
